EESchema Schematic File Version 4
LIBS:Relaisboard-cache
EELAYER 29 0
EELAYER END
$Descr A4 11693 8268
encoding utf-8
Sheet 1 1
Title ""
Date ""
Rev ""
Comp ""
Comment1 ""
Comment2 ""
Comment3 ""
Comment4 ""
$EndDescr
$Comp
L conn:Conn_01x02 J2
U 1 1 5C7620AC
P 1700 2450
F 0 "J2" H 1780 2442 50  0000 L CNN
F 1 "Conn_01x02" H 1780 2351 50  0000 L CNN
F 2 "TerminalBlock:TerminalBlock_Altech_AK300-2_P5.00mm" H 1700 2450 50  0001 C CNN
F 3 "~" H 1700 2450 50  0001 C CNN
	1    1700 2450
	-1   0    0    -1  
$EndComp
$Comp
L +5V:+5V #PWR02
U 1 1 5C7734CB
P 2450 800
F 0 "#PWR02" H 2450 890 20  0001 C CNN
F 1 "+5V" H 2446 928 30  0000 C CNN
F 2 "" H 2450 800 60  0000 C CNN
F 3 "" H 2450 800 60  0000 C CNN
	1    2450 800 
	1    0    0    -1  
$EndComp
$Comp
L power:GND #PWR01
U 1 1 5C773919
P 1750 1350
F 0 "#PWR01" H 1750 1100 50  0001 C CNN
F 1 "GND" H 1755 1177 50  0000 C CNN
F 2 "" H 1750 1350 50  0001 C CNN
F 3 "" H 1750 1350 50  0001 C CNN
	1    1750 1350
	1    0    0    -1  
$EndComp
$Comp
L transistors:BC547 Q5
U 1 1 5C773F71
P 1650 1000
F 0 "Q5" H 1841 1046 50  0000 L CNN
F 1 "BC547" H 1841 955 50  0000 L CNN
F 2 "TO_SOT_Packages_THT:TO-92_Molded_Narrow" H 1850 925 50  0001 L CIN
F 3 "http://www.fairchildsemi.com/ds/BC/BC547.pdf" H 1650 1000 50  0001 L CNN
	1    1650 1000
	1    0    0    -1  
$EndComp
$Comp
L device:D D9
U 1 1 5C77586B
P 2200 800
F 0 "D9" H 2200 1016 50  0000 C CNN
F 1 "D" H 2200 925 50  0000 C CNN
F 2 "Diodes_THT:D_DO-41_SOD81_P7.62mm_Horizontal" H 2200 800 50  0001 C CNN
F 3 "~" H 2200 800 50  0001 C CNN
	1    2200 800 
	-1   0    0    1   
$EndComp
Wire Wire Line
	2450 800  2350 800 
Wire Wire Line
	1900 1350 1950 1350
Wire Wire Line
	1750 1200 1750 1350
$Comp
L conn:Conn_01x02 J4
U 1 1 5C7792AA
P 3050 2450
F 0 "J4" H 3130 2442 50  0000 L CNN
F 1 "Conn_01x02" H 3130 2351 50  0000 L CNN
F 2 "TerminalBlock:TerminalBlock_Altech_AK300-2_P5.00mm" H 3050 2450 50  0001 C CNN
F 3 "~" H 3050 2450 50  0001 C CNN
	1    3050 2450
	1    0    0    -1  
$EndComp
$Comp
L device:R R5
U 1 1 5C77A4F8
P 2600 2000
F 0 "R5" H 2670 2046 50  0000 L CNN
F 1 "220" H 2670 1955 50  0000 L CNN
F 2 "Resistors_THT:R_Axial_DIN0309_L9.0mm_D3.2mm_P12.70mm_Horizontal" V 2530 2000 50  0001 C CNN
F 3 "~" H 2600 2000 50  0001 C CNN
	1    2600 2000
	1    0    0    -1  
$EndComp
$Comp
L device:C C2
U 1 1 5C77D28C
P 2600 2350
F 0 "C2" H 2715 2396 50  0000 L CNN
F 1 "470" H 2715 2305 50  0000 L CNN
F 2 "Capacitors_THT:C_Disc_D14.5mm_W5.0mm_P10.00mm" H 2638 2200 50  0001 C CNN
F 3 "~" H 2600 2350 50  0001 C CNN
	1    2600 2350
	1    0    0    -1  
$EndComp
Wire Wire Line
	1900 2450 1900 1750
Wire Wire Line
	1900 1750 1950 1750
Wire Wire Line
	2550 1350 2600 1350
Wire Wire Line
	2600 1350 2600 950 
Wire Wire Line
	2600 800  2450 800 
Connection ~ 2450 800 
$Comp
L device:R R4
U 1 1 5C782E76
P 1200 1000
F 0 "R4" H 1270 1046 50  0000 L CNN
F 1 "10k" H 1270 955 50  0000 L CNN
F 2 "Resistors_THT:R_Axial_DIN0204_L3.6mm_D1.6mm_P7.62mm_Horizontal" V 1130 1000 50  0001 C CNN
F 3 "~" H 1200 1000 50  0001 C CNN
	1    1200 1000
	0    1    1    0   
$EndComp
Wire Wire Line
	1450 1000 1350 1000
Wire Wire Line
	1050 1000 1000 1000
Wire Wire Line
	2550 1850 2600 1850
Wire Wire Line
	2850 1850 2850 2450
Wire Wire Line
	1900 2550 2600 2550
Wire Wire Line
	2600 2550 2600 2500
Connection ~ 2600 2550
Wire Wire Line
	2600 2550 2850 2550
Connection ~ 2600 1850
Wire Wire Line
	2600 1850 2850 1850
Wire Wire Line
	2600 2150 2600 2200
Text GLabel 1000 1000 0    50   Input ~ 0
RELAIS1
Wire Wire Line
	1750 800  1900 800 
Wire Wire Line
	1900 1350 1900 950 
Connection ~ 1900 800 
Wire Wire Line
	1900 800  2050 800 
Wire Notes Line
	3600 600  3600 2650
Wire Notes Line
	3600 2650 600  2650
Wire Notes Line
	600  2650 600  600 
Wire Notes Line
	3600 600  600  600 
$Comp
L relays2:FINDER-36.11.4001 RL2
U 1 1 5C7BC42F
P 2250 1550
F 0 "RL2" V 2907 1550 50  0000 C CNN
F 1 "FINDER-36.11.4001" V 2816 1550 50  0000 C CNN
F 2 "Relay_THT:finder_36.9.4001" H 2250 1550 50  0001 C CNN
F 3 "http://gfinder.findernet.com//assets/Series/34/S36EN.pdf" V 2725 1550 50  0000 C CNN
	1    2250 1550
	0    1    1    0   
$EndComp
$Comp
L device:LED D1
U 1 1 5C79B347
P 2050 950
F 0 "D1" H 2043 1166 50  0000 C CNN
F 1 "LED" H 2043 1075 50  0000 C CNN
F 2 "LEDs:LED_D3.0mm" H 2050 950 50  0001 C CNN
F 3 "~" H 2050 950 50  0001 C CNN
	1    2050 950 
	1    0    0    -1  
$EndComp
$Comp
L device:R R2
U 1 1 5C79B9B9
P 2450 950
F 0 "R2" H 2520 996 50  0000 L CNN
F 1 "470" H 2520 905 50  0000 L CNN
F 2 "Resistors_THT:R_Axial_DIN0204_L3.6mm_D1.6mm_P7.62mm_Horizontal" V 2380 950 50  0001 C CNN
F 3 "~" H 2450 950 50  0001 C CNN
	1    2450 950 
	0    1    1    0   
$EndComp
Connection ~ 2600 950 
Wire Wire Line
	2600 950  2600 800 
Connection ~ 1900 950 
Wire Wire Line
	1900 950  1900 800 
Wire Wire Line
	2200 950  2300 950 
$Comp
L conn:Conn_01x02 J6
U 1 1 5C7B0190
P 4900 2450
F 0 "J6" H 4980 2442 50  0000 L CNN
F 1 "Conn_01x02" H 4980 2351 50  0000 L CNN
F 2 "TerminalBlock:TerminalBlock_Altech_AK300-2_P5.00mm" H 4900 2450 50  0001 C CNN
F 3 "~" H 4900 2450 50  0001 C CNN
	1    4900 2450
	-1   0    0    -1  
$EndComp
$Comp
L +5V:+5V #PWR08
U 1 1 5C7B0196
P 5650 800
F 0 "#PWR08" H 5650 890 20  0001 C CNN
F 1 "+5V" H 5646 928 30  0000 C CNN
F 2 "" H 5650 800 60  0000 C CNN
F 3 "" H 5650 800 60  0000 C CNN
	1    5650 800 
	1    0    0    -1  
$EndComp
$Comp
L power:GND #PWR07
U 1 1 5C7B019C
P 4950 1350
F 0 "#PWR07" H 4950 1100 50  0001 C CNN
F 1 "GND" H 4955 1177 50  0000 C CNN
F 2 "" H 4950 1350 50  0001 C CNN
F 3 "" H 4950 1350 50  0001 C CNN
	1    4950 1350
	1    0    0    -1  
$EndComp
$Comp
L transistors:BC547 Q2
U 1 1 5C7B01A2
P 4850 1000
F 0 "Q2" H 5041 1046 50  0000 L CNN
F 1 "BC547" H 5041 955 50  0000 L CNN
F 2 "TO_SOT_Packages_THT:TO-92_Molded_Narrow" H 5050 925 50  0001 L CIN
F 3 "http://www.fairchildsemi.com/ds/BC/BC547.pdf" H 4850 1000 50  0001 L CNN
	1    4850 1000
	1    0    0    -1  
$EndComp
$Comp
L device:D D5
U 1 1 5C7B01A8
P 5400 800
F 0 "D5" H 5400 1016 50  0000 C CNN
F 1 "D" H 5400 925 50  0000 C CNN
F 2 "Diodes_THT:D_DO-41_SOD81_P7.62mm_Horizontal" H 5400 800 50  0001 C CNN
F 3 "~" H 5400 800 50  0001 C CNN
	1    5400 800 
	-1   0    0    1   
$EndComp
Wire Wire Line
	5650 800  5550 800 
Wire Wire Line
	5100 1350 5150 1350
Wire Wire Line
	4950 1200 4950 1350
$Comp
L conn:Conn_01x02 J7
U 1 1 5C7B01B1
P 6250 2450
F 0 "J7" H 6330 2442 50  0000 L CNN
F 1 "Conn_01x02" H 6330 2351 50  0000 L CNN
F 2 "TerminalBlock:TerminalBlock_Altech_AK300-2_P5.00mm" H 6250 2450 50  0001 C CNN
F 3 "~" H 6250 2450 50  0001 C CNN
	1    6250 2450
	1    0    0    -1  
$EndComp
$Comp
L device:R R9
U 1 1 5C7B01B7
P 5800 2000
F 0 "R9" H 5870 2046 50  0000 L CNN
F 1 "220" H 5870 1955 50  0000 L CNN
F 2 "Resistors_THT:R_Axial_DIN0309_L9.0mm_D3.2mm_P12.70mm_Horizontal" V 5730 2000 50  0001 C CNN
F 3 "~" H 5800 2000 50  0001 C CNN
	1    5800 2000
	1    0    0    -1  
$EndComp
$Comp
L device:C C3
U 1 1 5C7B01BD
P 5800 2350
F 0 "C3" H 5915 2396 50  0000 L CNN
F 1 "470" H 5915 2305 50  0000 L CNN
F 2 "Capacitors_THT:C_Disc_D14.5mm_W5.0mm_P10.00mm" H 5838 2200 50  0001 C CNN
F 3 "~" H 5800 2350 50  0001 C CNN
	1    5800 2350
	1    0    0    -1  
$EndComp
Wire Wire Line
	5100 2450 5100 1750
Wire Wire Line
	5100 1750 5150 1750
Wire Wire Line
	5750 1350 5800 1350
Wire Wire Line
	5800 1350 5800 950 
Wire Wire Line
	5800 800  5650 800 
Connection ~ 5650 800 
$Comp
L device:R R7
U 1 1 5C7B01C9
P 4400 1000
F 0 "R7" H 4470 1046 50  0000 L CNN
F 1 "10k" H 4470 955 50  0000 L CNN
F 2 "Resistors_THT:R_Axial_DIN0204_L3.6mm_D1.6mm_P7.62mm_Horizontal" V 4330 1000 50  0001 C CNN
F 3 "~" H 4400 1000 50  0001 C CNN
	1    4400 1000
	0    1    1    0   
$EndComp
Wire Wire Line
	4650 1000 4550 1000
Wire Wire Line
	4250 1000 4200 1000
Wire Wire Line
	5750 1850 5800 1850
Wire Wire Line
	6050 1850 6050 2450
Wire Wire Line
	5100 2550 5800 2550
Wire Wire Line
	5800 2550 5800 2500
Connection ~ 5800 2550
Wire Wire Line
	5800 2550 6050 2550
Connection ~ 5800 1850
Wire Wire Line
	5800 1850 6050 1850
Wire Wire Line
	5800 2150 5800 2200
Text GLabel 4200 1000 0    50   Input ~ 0
RELAIS2
Wire Wire Line
	4950 800  5100 800 
Wire Wire Line
	5100 1350 5100 950 
Connection ~ 5100 800 
Wire Wire Line
	5100 800  5250 800 
Wire Notes Line
	6800 600  6800 2650
Wire Notes Line
	6800 2650 3800 2650
Wire Notes Line
	3800 2650 3800 600 
Wire Notes Line
	6800 600  3800 600 
$Comp
L relays2:FINDER-36.11.4001 RL3
U 1 1 5C7B01E3
P 5450 1550
F 0 "RL3" V 6107 1550 50  0000 C CNN
F 1 "FINDER-36.11.4001" V 6016 1550 50  0000 C CNN
F 2 "Relay_THT:finder_36.9.4001" H 5450 1550 50  0001 C CNN
F 3 "http://gfinder.findernet.com//assets/Series/34/S36EN.pdf" V 5925 1550 50  0000 C CNN
	1    5450 1550
	0    1    1    0   
$EndComp
$Comp
L device:LED D4
U 1 1 5C7B01E9
P 5250 950
F 0 "D4" H 5243 1166 50  0000 C CNN
F 1 "LED" H 5243 1075 50  0000 C CNN
F 2 "LEDs:LED_D3.0mm" H 5250 950 50  0001 C CNN
F 3 "~" H 5250 950 50  0001 C CNN
	1    5250 950 
	1    0    0    -1  
$EndComp
$Comp
L device:R R8
U 1 1 5C7B01EF
P 5650 950
F 0 "R8" H 5720 996 50  0000 L CNN
F 1 "470" H 5720 905 50  0000 L CNN
F 2 "Resistors_THT:R_Axial_DIN0204_L3.6mm_D1.6mm_P7.62mm_Horizontal" V 5580 950 50  0001 C CNN
F 3 "~" H 5650 950 50  0001 C CNN
	1    5650 950 
	0    1    1    0   
$EndComp
Connection ~ 5800 950 
Wire Wire Line
	5800 950  5800 800 
Connection ~ 5100 950 
Wire Wire Line
	5100 950  5100 800 
Wire Wire Line
	5400 950  5500 950 
$Comp
L conn:Conn_01x02 J8
U 1 1 5C7B5C4F
P 8050 2450
F 0 "J8" H 8130 2442 50  0000 L CNN
F 1 "Conn_01x02" H 8130 2351 50  0000 L CNN
F 2 "TerminalBlock:TerminalBlock_Altech_AK300-2_P5.00mm" H 8050 2450 50  0001 C CNN
F 3 "~" H 8050 2450 50  0001 C CNN
	1    8050 2450
	-1   0    0    -1  
$EndComp
$Comp
L +5V:+5V #PWR010
U 1 1 5C7B5C55
P 8800 800
F 0 "#PWR010" H 8800 890 20  0001 C CNN
F 1 "+5V" H 8796 928 30  0000 C CNN
F 2 "" H 8800 800 60  0000 C CNN
F 3 "" H 8800 800 60  0000 C CNN
	1    8800 800 
	1    0    0    -1  
$EndComp
$Comp
L power:GND #PWR09
U 1 1 5C7B5C5B
P 8100 1350
F 0 "#PWR09" H 8100 1100 50  0001 C CNN
F 1 "GND" H 8105 1177 50  0000 C CNN
F 2 "" H 8100 1350 50  0001 C CNN
F 3 "" H 8100 1350 50  0001 C CNN
	1    8100 1350
	1    0    0    -1  
$EndComp
$Comp
L transistors:BC547 Q3
U 1 1 5C7B5C61
P 8000 1000
F 0 "Q3" H 8191 1046 50  0000 L CNN
F 1 "BC547" H 8191 955 50  0000 L CNN
F 2 "TO_SOT_Packages_THT:TO-92_Molded_Narrow" H 8200 925 50  0001 L CIN
F 3 "http://www.fairchildsemi.com/ds/BC/BC547.pdf" H 8000 1000 50  0001 L CNN
	1    8000 1000
	1    0    0    -1  
$EndComp
$Comp
L device:D D7
U 1 1 5C7B5C67
P 8550 800
F 0 "D7" H 8550 1016 50  0000 C CNN
F 1 "D" H 8550 925 50  0000 C CNN
F 2 "Diodes_THT:D_DO-41_SOD81_P7.62mm_Horizontal" H 8550 800 50  0001 C CNN
F 3 "~" H 8550 800 50  0001 C CNN
	1    8550 800 
	-1   0    0    1   
$EndComp
Wire Wire Line
	8800 800  8700 800 
Wire Wire Line
	8250 1350 8300 1350
Wire Wire Line
	8100 1200 8100 1350
$Comp
L conn:Conn_01x02 J9
U 1 1 5C7B5C70
P 9400 2450
F 0 "J9" H 9480 2442 50  0000 L CNN
F 1 "Conn_01x02" H 9480 2351 50  0000 L CNN
F 2 "TerminalBlock:TerminalBlock_Altech_AK300-2_P5.00mm" H 9400 2450 50  0001 C CNN
F 3 "~" H 9400 2450 50  0001 C CNN
	1    9400 2450
	1    0    0    -1  
$EndComp
$Comp
L device:R R12
U 1 1 5C7B5C76
P 8950 2000
F 0 "R12" H 9020 2046 50  0000 L CNN
F 1 "220" H 9020 1955 50  0000 L CNN
F 2 "Resistors_THT:R_Axial_DIN0309_L9.0mm_D3.2mm_P12.70mm_Horizontal" V 8880 2000 50  0001 C CNN
F 3 "~" H 8950 2000 50  0001 C CNN
	1    8950 2000
	1    0    0    -1  
$EndComp
$Comp
L device:C C4
U 1 1 5C7B5C7C
P 8950 2350
F 0 "C4" H 9065 2396 50  0000 L CNN
F 1 "470" H 9065 2305 50  0000 L CNN
F 2 "Capacitors_THT:C_Disc_D14.5mm_W5.0mm_P10.00mm" H 8988 2200 50  0001 C CNN
F 3 "~" H 8950 2350 50  0001 C CNN
	1    8950 2350
	1    0    0    -1  
$EndComp
Wire Wire Line
	8250 2450 8250 1750
Wire Wire Line
	8250 1750 8300 1750
Wire Wire Line
	8900 1350 8950 1350
Wire Wire Line
	8950 1350 8950 950 
Wire Wire Line
	8950 800  8800 800 
Connection ~ 8800 800 
$Comp
L device:R R10
U 1 1 5C7B5C88
P 7550 1000
F 0 "R10" H 7620 1046 50  0000 L CNN
F 1 "10k" H 7620 955 50  0000 L CNN
F 2 "Resistors_THT:R_Axial_DIN0204_L3.6mm_D1.6mm_P7.62mm_Horizontal" V 7480 1000 50  0001 C CNN
F 3 "~" H 7550 1000 50  0001 C CNN
	1    7550 1000
	0    1    1    0   
$EndComp
Wire Wire Line
	7800 1000 7700 1000
Wire Wire Line
	7400 1000 7350 1000
Wire Wire Line
	8900 1850 8950 1850
Wire Wire Line
	9200 1850 9200 2450
Wire Wire Line
	8250 2550 8950 2550
Wire Wire Line
	8950 2550 8950 2500
Connection ~ 8950 2550
Wire Wire Line
	8950 2550 9200 2550
Connection ~ 8950 1850
Wire Wire Line
	8950 1850 9200 1850
Wire Wire Line
	8950 2150 8950 2200
Text GLabel 7350 1000 0    50   Input ~ 0
RELAIS3
Wire Wire Line
	8100 800  8250 800 
Wire Wire Line
	8250 1350 8250 950 
Connection ~ 8250 800 
Wire Wire Line
	8250 800  8400 800 
Wire Notes Line
	9950 600  9950 2650
Wire Notes Line
	9950 2650 6950 2650
Wire Notes Line
	6950 2650 6950 600 
Wire Notes Line
	9950 600  6950 600 
$Comp
L relays2:FINDER-36.11.4001 RL4
U 1 1 5C7B5CA2
P 8600 1550
F 0 "RL4" V 9257 1550 50  0000 C CNN
F 1 "FINDER-36.11.4001" V 9166 1550 50  0000 C CNN
F 2 "Relay_THT:finder_36.9.4001" H 8600 1550 50  0001 C CNN
F 3 "http://gfinder.findernet.com//assets/Series/34/S36EN.pdf" V 9075 1550 50  0000 C CNN
	1    8600 1550
	0    1    1    0   
$EndComp
$Comp
L device:LED D6
U 1 1 5C7B5CA8
P 8400 950
F 0 "D6" H 8393 1166 50  0000 C CNN
F 1 "LED" H 8393 1075 50  0000 C CNN
F 2 "LEDs:LED_D3.0mm" H 8400 950 50  0001 C CNN
F 3 "~" H 8400 950 50  0001 C CNN
	1    8400 950 
	1    0    0    -1  
$EndComp
$Comp
L device:R R11
U 1 1 5C7B5CAE
P 8800 950
F 0 "R11" H 8870 996 50  0000 L CNN
F 1 "470" H 8870 905 50  0000 L CNN
F 2 "Resistors_THT:R_Axial_DIN0204_L3.6mm_D1.6mm_P7.62mm_Horizontal" V 8730 950 50  0001 C CNN
F 3 "~" H 8800 950 50  0001 C CNN
	1    8800 950 
	0    1    1    0   
$EndComp
Connection ~ 8950 950 
Wire Wire Line
	8950 950  8950 800 
Connection ~ 8250 950 
Wire Wire Line
	8250 950  8250 800 
Wire Wire Line
	8550 950  8650 950 
$Comp
L conn:Conn_01x02 J3
U 1 1 5C7BC362
P 1700 4750
F 0 "J3" H 1780 4742 50  0000 L CNN
F 1 "Conn_01x02" H 1780 4651 50  0000 L CNN
F 2 "TerminalBlock:TerminalBlock_Altech_AK300-2_P5.00mm" H 1700 4750 50  0001 C CNN
F 3 "~" H 1700 4750 50  0001 C CNN
	1    1700 4750
	-1   0    0    -1  
$EndComp
$Comp
L +5V:+5V #PWR06
U 1 1 5C7BC368
P 2450 3100
F 0 "#PWR06" H 2450 3190 20  0001 C CNN
F 1 "+5V" H 2446 3228 30  0000 C CNN
F 2 "" H 2450 3100 60  0000 C CNN
F 3 "" H 2450 3100 60  0000 C CNN
	1    2450 3100
	1    0    0    -1  
$EndComp
$Comp
L power:GND #PWR05
U 1 1 5C7BC36E
P 1750 3650
F 0 "#PWR05" H 1750 3400 50  0001 C CNN
F 1 "GND" H 1755 3477 50  0000 C CNN
F 2 "" H 1750 3650 50  0001 C CNN
F 3 "" H 1750 3650 50  0001 C CNN
	1    1750 3650
	1    0    0    -1  
$EndComp
$Comp
L transistors:BC547 Q1
U 1 1 5C7BC374
P 1650 3300
F 0 "Q1" H 1841 3346 50  0000 L CNN
F 1 "BC547" H 1841 3255 50  0000 L CNN
F 2 "TO_SOT_Packages_THT:TO-92_Molded_Narrow" H 1850 3225 50  0001 L CIN
F 3 "http://www.fairchildsemi.com/ds/BC/BC547.pdf" H 1650 3300 50  0001 L CNN
	1    1650 3300
	1    0    0    -1  
$EndComp
$Comp
L device:D D3
U 1 1 5C7BC37A
P 2200 3100
F 0 "D3" H 2200 3316 50  0000 C CNN
F 1 "D" H 2200 3225 50  0000 C CNN
F 2 "Diodes_THT:D_DO-41_SOD81_P7.62mm_Horizontal" H 2200 3100 50  0001 C CNN
F 3 "~" H 2200 3100 50  0001 C CNN
	1    2200 3100
	-1   0    0    1   
$EndComp
Wire Wire Line
	2450 3100 2350 3100
Wire Wire Line
	1900 3650 1950 3650
Wire Wire Line
	1750 3500 1750 3650
$Comp
L conn:Conn_01x02 J5
U 1 1 5C7BC383
P 3050 4750
F 0 "J5" H 3130 4742 50  0000 L CNN
F 1 "Conn_01x02" H 3130 4651 50  0000 L CNN
F 2 "TerminalBlock:TerminalBlock_Altech_AK300-2_P5.00mm" H 3050 4750 50  0001 C CNN
F 3 "~" H 3050 4750 50  0001 C CNN
	1    3050 4750
	1    0    0    -1  
$EndComp
$Comp
L device:R R6
U 1 1 5C7BC389
P 2600 4300
F 0 "R6" H 2670 4346 50  0000 L CNN
F 1 "220" H 2670 4255 50  0000 L CNN
F 2 "Resistors_THT:R_Axial_DIN0309_L9.0mm_D3.2mm_P12.70mm_Horizontal" V 2530 4300 50  0001 C CNN
F 3 "~" H 2600 4300 50  0001 C CNN
	1    2600 4300
	1    0    0    -1  
$EndComp
$Comp
L device:C C1
U 1 1 5C7BC38F
P 2600 4650
F 0 "C1" H 2715 4696 50  0000 L CNN
F 1 "470" H 2715 4605 50  0000 L CNN
F 2 "Capacitors_THT:C_Disc_D14.5mm_W5.0mm_P10.00mm" H 2638 4500 50  0001 C CNN
F 3 "~" H 2600 4650 50  0001 C CNN
	1    2600 4650
	1    0    0    -1  
$EndComp
Wire Wire Line
	1900 4750 1900 4050
Wire Wire Line
	1900 4050 1950 4050
Wire Wire Line
	2550 3650 2600 3650
Wire Wire Line
	2600 3650 2600 3250
Wire Wire Line
	2600 3100 2450 3100
Connection ~ 2450 3100
$Comp
L device:R R1
U 1 1 5C7BC39B
P 1200 3300
F 0 "R1" H 1270 3346 50  0000 L CNN
F 1 "10k" H 1270 3255 50  0000 L CNN
F 2 "Resistors_THT:R_Axial_DIN0204_L3.6mm_D1.6mm_P7.62mm_Horizontal" V 1130 3300 50  0001 C CNN
F 3 "~" H 1200 3300 50  0001 C CNN
	1    1200 3300
	0    1    1    0   
$EndComp
Wire Wire Line
	1450 3300 1350 3300
Wire Wire Line
	1050 3300 1000 3300
Wire Wire Line
	2550 4150 2600 4150
Wire Wire Line
	2850 4150 2850 4750
Wire Wire Line
	1900 4850 2600 4850
Wire Wire Line
	2600 4850 2600 4800
Connection ~ 2600 4850
Wire Wire Line
	2600 4850 2850 4850
Connection ~ 2600 4150
Wire Wire Line
	2600 4150 2850 4150
Wire Wire Line
	2600 4450 2600 4500
Text GLabel 1000 3300 0    50   Input ~ 0
RELAIS4
Wire Wire Line
	1750 3100 1900 3100
Wire Wire Line
	1900 3650 1900 3250
Connection ~ 1900 3100
Wire Wire Line
	1900 3100 2050 3100
Wire Notes Line
	3600 2900 3600 4950
Wire Notes Line
	3600 4950 600  4950
Wire Notes Line
	600  4950 600  2900
Wire Notes Line
	3600 2900 600  2900
$Comp
L relays2:FINDER-36.11.4001 RL1
U 1 1 5C7BC3B5
P 2250 3850
F 0 "RL1" V 2907 3850 50  0000 C CNN
F 1 "FINDER-36.11.4001" V 2816 3850 50  0000 C CNN
F 2 "Relay_THT:finder_36.9.4001" H 2250 3850 50  0001 C CNN
F 3 "http://gfinder.findernet.com//assets/Series/34/S36EN.pdf" V 2725 3850 50  0000 C CNN
	1    2250 3850
	0    1    1    0   
$EndComp
$Comp
L device:LED D2
U 1 1 5C7BC3BB
P 2050 3250
F 0 "D2" H 2043 3466 50  0000 C CNN
F 1 "LED" H 2043 3375 50  0000 C CNN
F 2 "LEDs:LED_D3.0mm" H 2050 3250 50  0001 C CNN
F 3 "~" H 2050 3250 50  0001 C CNN
	1    2050 3250
	1    0    0    -1  
$EndComp
$Comp
L device:R R3
U 1 1 5C7BC3C1
P 2450 3250
F 0 "R3" H 2520 3296 50  0000 L CNN
F 1 "470" H 2520 3205 50  0000 L CNN
F 2 "Resistors_THT:R_Axial_DIN0204_L3.6mm_D1.6mm_P7.62mm_Horizontal" V 2380 3250 50  0001 C CNN
F 3 "~" H 2450 3250 50  0001 C CNN
	1    2450 3250
	0    1    1    0   
$EndComp
Connection ~ 2600 3250
Wire Wire Line
	2600 3250 2600 3100
Connection ~ 1900 3250
Wire Wire Line
	1900 3250 1900 3100
Wire Wire Line
	2200 3250 2300 3250
Text GLabel 1050 5450 0    50   Input ~ 0
RELAIS1
Text GLabel 1050 5550 0    50   Input ~ 0
RELAIS2
Text GLabel 1050 5650 0    50   Input ~ 0
RELAIS3
Text GLabel 1050 5750 0    50   Input ~ 0
RELAIS4
$Comp
L power:GND #PWR03
U 1 1 5C7BFBEC
P 1750 5350
F 0 "#PWR03" H 1750 5100 50  0001 C CNN
F 1 "GND" H 1755 5177 50  0000 C CNN
F 2 "" H 1750 5350 50  0001 C CNN
F 3 "" H 1750 5350 50  0001 C CNN
	1    1750 5350
	0    1    1    0   
$EndComp
$Comp
L +5V:+5V #PWR04
U 1 1 5C7C05C4
P 1750 5250
F 0 "#PWR04" H 1750 5340 20  0001 C CNN
F 1 "+5V" H 1746 5378 30  0000 C CNN
F 2 "" H 1750 5250 60  0000 C CNN
F 3 "" H 1750 5250 60  0000 C CNN
	1    1750 5250
	0    -1   -1   0   
$EndComp
Wire Notes Line
	600  5100 3100 5100
$Comp
L conn:RJ45 J1
U 1 1 5C8C531A
P 2400 5600
F 0 "J1" V 2432 6080 50  0000 L CNN
F 1 "RJ45" V 2523 6080 50  0000 L CNN
F 2 "Connector_RJ:RJ45_8" H 2400 5600 50  0001 C CNN
F 3 "" H 2400 5600 50  0001 C CNN
	1    2400 5600
	0    1    1    0   
$EndComp
Wire Wire Line
	1950 5250 1750 5250
Wire Wire Line
	1950 5350 1750 5350
Wire Wire Line
	1950 5450 1700 5450
Wire Wire Line
	1100 5750 1050 5750
Connection ~ 1100 5750
Wire Wire Line
	1100 5750 1950 5750
Wire Wire Line
	1050 5650 1300 5650
Wire Wire Line
	1050 5550 1500 5550
Wire Wire Line
	1100 5850 1100 5750
Wire Wire Line
	1300 5850 1300 5650
Connection ~ 1300 5650
Wire Wire Line
	1300 5650 1950 5650
Wire Wire Line
	1500 5850 1500 5550
Connection ~ 1500 5550
$Comp
L power:GND #PWR011
U 1 1 5C917F54
P 1450 6250
F 0 "#PWR011" H 1450 6000 50  0001 C CNN
F 1 "GND" H 1455 6077 50  0000 C CNN
F 2 "" H 1450 6250 50  0001 C CNN
F 3 "" H 1450 6250 50  0001 C CNN
	1    1450 6250
	1    0    0    -1  
$EndComp
Wire Wire Line
	1450 6250 1700 6250
Wire Wire Line
	1700 6250 1700 6150
Wire Wire Line
	1500 6150 1500 6200
Wire Wire Line
	1500 6200 1450 6200
Wire Wire Line
	1450 6200 1450 6250
Connection ~ 1450 6250
Wire Wire Line
	1300 6150 1450 6150
Wire Wire Line
	1450 6150 1450 6200
Connection ~ 1450 6200
Wire Wire Line
	1100 6150 1100 6250
Wire Wire Line
	1100 6250 1450 6250
Wire Wire Line
	1500 5550 1950 5550
Wire Wire Line
	1700 5850 1700 5450
Connection ~ 1700 5450
Wire Wire Line
	1700 5450 1050 5450
Wire Notes Line
	3100 5100 3100 6500
Wire Notes Line
	3100 6500 600  6500
Wire Notes Line
	600  5100 600  6500
$Comp
L device:C C5
U 1 1 5C8C7010
P 1100 6000
F 0 "C5" H 1215 6046 50  0000 L CNN
F 1 "470" H 1215 5955 50  0000 L CNN
F 2 "Capacitors_THT:C_Disc_D5.0mm_W2.5mm_P2.50mm" H 1138 5850 50  0001 C CNN
F 3 "~" H 1100 6000 50  0001 C CNN
	1    1100 6000
	1    0    0    -1  
$EndComp
$Comp
L device:C C6
U 1 1 5C8C74C0
P 1300 6000
F 0 "C6" H 1415 6046 50  0000 L CNN
F 1 "470" H 1415 5955 50  0000 L CNN
F 2 "Capacitors_THT:C_Disc_D5.0mm_W2.5mm_P2.50mm" H 1338 5850 50  0001 C CNN
F 3 "~" H 1300 6000 50  0001 C CNN
	1    1300 6000
	1    0    0    -1  
$EndComp
$Comp
L device:C C7
U 1 1 5C8C7A47
P 1500 6000
F 0 "C7" H 1615 6046 50  0000 L CNN
F 1 "470" H 1615 5955 50  0000 L CNN
F 2 "Capacitors_THT:C_Disc_D5.0mm_W2.5mm_P2.50mm" H 1538 5850 50  0001 C CNN
F 3 "~" H 1500 6000 50  0001 C CNN
	1    1500 6000
	1    0    0    -1  
$EndComp
$Comp
L device:C C8
U 1 1 5C8C7FFC
P 1700 6000
F 0 "C8" H 1815 6046 50  0000 L CNN
F 1 "470" H 1815 5955 50  0000 L CNN
F 2 "Capacitors_THT:C_Disc_D5.0mm_W2.5mm_P2.50mm" H 1738 5850 50  0001 C CNN
F 3 "~" H 1700 6000 50  0001 C CNN
	1    1700 6000
	1    0    0    -1  
$EndComp
$Comp
L power:GND #PWR?
U 1 1 5C958F28
P 2750 6150
F 0 "#PWR?" H 2750 5900 50  0001 C CNN
F 1 "GND" H 2755 5977 50  0000 C CNN
F 2 "" H 2750 6150 50  0001 C CNN
F 3 "" H 2750 6150 50  0001 C CNN
	1    2750 6150
	1    0    0    -1  
$EndComp
$EndSCHEMATC
