EESchema Schematic File Version 4
LIBS:CMCentralSensorSystem_ExtensionBoard-cache
EELAYER 26 0
EELAYER END
$Descr A4 11693 8268
encoding utf-8
Sheet 2 3
Title "Central Sensor System -> Sensor Board"
Date "2017-04-30"
Rev "1.0"
Comp ""
Comment1 ""
Comment2 ""
Comment3 ""
Comment4 ""
$EndDescr
$Comp
L CMCentralSensorSystem_ExtensionBoard-rescue:CONN_01X02-RESCUE-CMCentralSensorSystem-RESCUE-CMCentralSensorSystem_ExtensionBoard Battery_5V1
U 1 1 59061867
P 3100 7450
AR Path="/59061867" Ref="Battery_5V1"  Part="1" 
AR Path="/5905B356/59061867" Ref="Battery_5V1"  Part="1" 
F 0 "Battery_5V1" H 3100 7600 50  0000 C CNN
F 1 "CONN_01X02" V 3200 7450 50  0000 C CNN
F 2 "Pin_Headers:Pin_Header_Straight_1x02_Pitch2.54mm" H 3100 7450 50  0001 C CNN
F 3 "" H 3100 7450 50  0001 C CNN
	1    3100 7450
	-1   0    0    1   
$EndComp
$Comp
L CMCentralSensorSystem_ExtensionBoard-rescue:CONN_01X04-RESCUE-CMCentralSensorSystem-RESCUE-CMCentralSensorSystem_ExtensionBoard DHT11
U 1 1 590618DC
P 800 6300
F 0 "DHT11" H 800 6550 50  0000 C CNN
F 1 "CONN_01X04" V 900 6300 50  0000 C CNN
F 2 "Pin_Headers:Pin_Header_Straight_1x04_Pitch2.54mm" H 800 6300 50  0001 C CNN
F 3 "" H 800 6300 50  0001 C CNN
	1    800  6300
	-1   0    0    1   
$EndComp
$Comp
L CMCentralSensorSystem_ExtensionBoard-rescue:CONN_01X04-RESCUE-CMCentralSensorSystem-RESCUE-CMCentralSensorSystem_ExtensionBoard BMP180
U 1 1 5906192B
P 4800 6250
F 0 "BMP180" H 4800 6500 50  0000 C CNN
F 1 "CONN_01X04" V 4900 6250 50  0000 C CNN
F 2 "Pin_Headers:Pin_Header_Straight_1x04_Pitch2.54mm" H 4800 6250 50  0001 C CNN
F 3 "" H 4800 6250 50  0001 C CNN
	1    4800 6250
	-1   0    0    1   
$EndComp
$Comp
L CMCentralSensorSystem_ExtensionBoard-rescue:CONN_01X02-RESCUE-CMCentralSensorSystem-RESCUE-CMCentralSensorSystem_ExtensionBoard LDR1
U 1 1 590619F6
P 10100 5750
AR Path="/590619F6" Ref="LDR1"  Part="1" 
AR Path="/5905B356/590619F6" Ref="LDR1"  Part="1" 
F 0 "LDR1" H 10100 5900 50  0000 C CNN
F 1 "CONN_01X02" V 10200 5750 50  0000 C CNN
F 2 "Pin_Headers:Pin_Header_Straight_1x02_Pitch2.54mm" H 10100 5750 50  0001 C CNN
F 3 "" H 10100 5750 50  0001 C CNN
	1    10100 5750
	-1   0    0    1   
$EndComp
$Comp
L SparkFun-Sensors:GAS_SENSOR GS1
U 1 1 59062C5F
P 1300 4800
F 0 "GS1" H 1000 5010 45  0000 L BNN
F 1 "AIRQUALITY_SENSOR" H 1000 4690 45  0000 L BNN
F 2 "SparkFun-Sensors:SparkFun-Sensors-GAS_SENSOR" H 1300 4800 60  0001 C CNN
F 3 "" H 1300 4800 60  0001 C CNN
	1    1300 4800
	1    0    0    -1  
$EndComp
$Comp
L philips-3:LM75A IC4
U 1 1 59062CF2
P 1850 7200
F 0 "IC4" H 1600 7525 45  0000 L BNN
F 1 "LM75A" H 1600 6900 45  0000 L BNN
F 2 "philips-3:philips-3-SO8" H 1850 7200 60  0001 C CNN
F 3 "" H 1850 7200 60  0001 C CNN
	1    1850 7200
	1    0    0    -1  
$EndComp
$Comp
L CMCentralSensorSystem_ExtensionBoard-rescue:CONN_01X10-RESCUE-CMCentralSensorSystem-RESCUE-CMCentralSensorSystem_ExtensionBoard ExtensionBoard2
U 1 1 59063198
P 1050 1200
F 0 "ExtensionBoard2" H 1050 1750 50  0000 C CNN
F 1 "CONN_01X10" V 1150 1200 50  0000 C CNN
F 2 "Pin_Headers:Pin_Header_Angled_1x10_Pitch2.54mm" H 1050 1200 50  0001 C CNN
F 3 "" H 1050 1200 50  0001 C CNN
	1    1050 1200
	-1   0    0    1   
$EndComp
Text GLabel 1850 2900 2    60   Input ~ 0
SCL_3.3V_E
Text GLabel 1850 3000 2    60   Input ~ 0
SDA_3.3V_E
$Comp
L CMCentralSensorSystem_ExtensionBoard-rescue:CONN_01X03-RESCUE-CMCentralSensorSystem-RESCUE-CMCentralSensorSystem_ExtensionBoard 3.3V/5V1
U 1 1 59063EF3
P 950 2200
F 0 "3.3V/5V1" H 950 2400 50  0000 C CNN
F 1 "CONN_01X03" V 1050 2200 50  0000 C CNN
F 2 "Pin_Headers:Pin_Header_Angled_1x03_Pitch2.54mm" H 950 2200 50  0001 C CNN
F 3 "" H 950 2200 50  0001 C CNN
	1    950  2200
	-1   0    0    1   
$EndComp
$Comp
L power:+5V #PWR065
U 1 1 59064521
P 1750 2550
F 0 "#PWR065" H 1750 2400 50  0001 C CNN
F 1 "+5V" H 1750 2690 50  0000 C CNN
F 2 "" H 1750 2550 50  0001 C CNN
F 3 "" H 1750 2550 50  0001 C CNN
	1    1750 2550
	0    1    1    0   
$EndComp
Text GLabel 10500 5700 2    60   Input ~ 0
LDR_5V_E
$Comp
L power:+5V #PWR066
U 1 1 590669BF
P 10300 5900
F 0 "#PWR066" H 10300 5750 50  0001 C CNN
F 1 "+5V" H 10300 6040 50  0000 C CNN
F 2 "" H 10300 5900 50  0001 C CNN
F 3 "" H 10300 5900 50  0001 C CNN
	1    10300 5900
	-1   0    0    1   
$EndComp
$Comp
L power:+5V #PWR067
U 1 1 590673EF
P 1850 6500
F 0 "#PWR067" H 1850 6350 50  0001 C CNN
F 1 "+5V" H 1850 6640 50  0000 C CNN
F 2 "" H 1850 6500 50  0001 C CNN
F 3 "" H 1850 6500 50  0001 C CNN
	1    1850 6500
	0    1    1    0   
$EndComp
Text GLabel 1500 6350 2    60   Input ~ 0
DHT11_5V_E
$Comp
L power:+5V #PWR068
U 1 1 5906783F
P 1200 6450
F 0 "#PWR068" H 1200 6300 50  0001 C CNN
F 1 "+5V" H 1200 6590 50  0000 C CNN
F 2 "" H 1200 6450 50  0001 C CNN
F 3 "" H 1200 6450 50  0001 C CNN
	1    1200 6450
	0    1    1    0   
$EndComp
Text GLabel 1200 7000 0    60   Input ~ 0
SDA_3.3V_E
Text GLabel 1200 7100 0    60   Input ~ 0
SCL_3.3V_E
Text GLabel 5350 6100 2    60   Input ~ 0
SCL_3.3V_E
Text GLabel 5350 6200 2    60   Input ~ 0
SDA_3.3V_E
Text GLabel 2150 1150 2    60   Input ~ 0
LDR_5V_E
Text GLabel 2150 1250 2    60   Input ~ 0
DHT11_5V_E
Text GLabel 2150 1350 2    60   Input ~ 0
PIR_5V_E
Text GLabel 2150 1050 2    60   Input ~ 0
ML8511_3.3V_E
Text GLabel 1850 3200 2    60   Input ~ 0
SDA_5V_E
Text GLabel 1850 3100 2    60   Input ~ 0
SCL_5V_E
$Comp
L CMCentralSensorSystem_ExtensionBoard-rescue:CONN_01X10-RESCUE-CMCentralSensorSystem-RESCUE-CMCentralSensorSystem_ExtensionBoard I2C/SPI2
U 1 1 5907DE05
P 900 3350
F 0 "I2C/SPI2" H 900 3900 50  0000 C CNN
F 1 "CONN_01X10" V 1000 3350 50  0000 C CNN
F 2 "Pin_Headers:Pin_Header_Angled_1x10_Pitch2.54mm" H 900 3350 50  0001 C CNN
F 3 "" H 900 3350 50  0001 C CNN
	1    900  3350
	-1   0    0    1   
$EndComp
Text GLabel 1850 3300 2    60   Input ~ 0
MOSI_5V_E
Text GLabel 1850 3400 2    60   Input ~ 0
MISO_5V_E
Text GLabel 1850 3500 2    60   Input ~ 0
SCK_5V_E
Text GLabel 1850 3600 2    60   Input ~ 0
MOSI_3.3V_E
Text GLabel 1850 3700 2    60   Input ~ 0
MISO_3.3V_E
Text GLabel 1850 3800 2    60   Input ~ 0
SCK_3.3V_E
$Comp
L CMCentralSensorSystem_ExtensionBoard-rescue:CONN_01X05-RESCUE-CMCentralSensorSystem-RESCUE-CMCentralSensorSystem_ExtensionBoard ML8511
U 1 1 5908137D
P 9650 4500
F 0 "ML8511" H 9650 4800 50  0000 C CNN
F 1 "CONN_01X05" V 9750 4500 50  0000 C CNN
F 2 "Pin_Headers:Pin_Header_Straight_1x05_Pitch2.54mm" H 9650 4500 50  0001 C CNN
F 3 "" H 9650 4500 50  0001 C CNN
	1    9650 4500
	-1   0    0    1   
$EndComp
Text GLabel 2150 950  2    60   Input ~ 0
AudioSensor_5V_E
$Comp
L power:+5V #PWR069
U 1 1 59083C4E
P 3600 7400
F 0 "#PWR069" H 3600 7250 50  0001 C CNN
F 1 "+5V" H 3600 7540 50  0000 C CNN
F 2 "" H 3600 7400 50  0001 C CNN
F 3 "" H 3600 7400 50  0001 C CNN
	1    3600 7400
	0    1    1    0   
$EndComp
$Comp
L CMCentralSensorSystem_ExtensionBoard-rescue:CONN_01X03-RESCUE-CMCentralSensorSystem-RESCUE-CMCentralSensorSystem_ExtensionBoard 1WIRE1
U 1 1 59084BC1
P 3000 6250
F 0 "1WIRE1" H 3000 6450 50  0000 C CNN
F 1 "CONN_01X03" V 3100 6250 50  0000 C CNN
F 2 "Pin_Headers:Pin_Header_Straight_1x03_Pitch2.54mm" H 3000 6250 50  0001 C CNN
F 3 "" H 3000 6250 50  0001 C CNN
	1    3000 6250
	-1   0    0    1   
$EndComp
Text GLabel 3750 6250 2    60   Input ~ 0
1WIRE_3.3V_E
Text GLabel 2200 1550 2    60   Input ~ 0
1WIRE_3.3V_E
Text GLabel 2200 1650 2    60   Input ~ 0
BATTERY_5V_E
Text GLabel 2150 750  2    60   Input ~ 0
10_E
$Comp
L SparkFun-Sensors:GAS_SENSOR GS2
U 1 1 595ACAA3
P 5450 4850
F 0 "GS2" H 5150 5060 45  0000 L BNN
F 1 "GAS_SENSOR" H 5150 4740 45  0000 L BNN
F 2 "SparkFun-Sensors:SparkFun-Sensors-GAS_SENSOR" H 5450 4850 60  0001 C CNN
F 3 "" H 5450 4850 60  0001 C CNN
	1    5450 4850
	1    0    0    -1  
$EndComp
Text GLabel 7650 4950 2    60   Input ~ 0
GAS_SENSOR_E
Text GLabel 2150 1450 2    60   Input ~ 0
GAS_SENSOR_E
Text GLabel 2150 850  2    60   Input ~ 0
AIRQUALITY_SENSOR_E
$Comp
L linear:LM358 U4
U 1 1 595AF409
P 2700 4950
F 0 "U4" H 2700 5150 50  0000 L CNN
F 1 "LM358" H 2700 4750 50  0000 L CNN
F 2 "Housings_DIP:DIP-8_W7.62mm" H 2700 4950 50  0001 C CNN
F 3 "" H 2700 4950 50  0001 C CNN
	1    2700 4950
	1    0    0    -1  
$EndComp
$Comp
L power:+5V #PWR070
U 1 1 595AF8BB
P 950 4450
F 0 "#PWR070" H 950 4300 50  0001 C CNN
F 1 "+5V" H 950 4590 50  0000 C CNN
F 2 "" H 950 4450 50  0001 C CNN
F 3 "" H 950 4450 50  0001 C CNN
	1    950  4450
	1    0    0    -1  
$EndComp
$Comp
L power:+5V #PWR071
U 1 1 595BA325
P 5050 4550
F 0 "#PWR071" H 5050 4400 50  0001 C CNN
F 1 "+5V" H 5050 4690 50  0000 C CNN
F 2 "" H 5050 4550 50  0001 C CNN
F 3 "" H 5050 4550 50  0001 C CNN
	1    5050 4550
	1    0    0    -1  
$EndComp
Text GLabel 3600 4950 2    60   Input ~ 0
AIRQUALITY_SENSOR_E
$Comp
L device:R R13
U 1 1 59650FE9
P 10400 5550
F 0 "R13" V 10480 5550 50  0000 C CNN
F 1 "1.5k" V 10400 5550 50  0000 C CNN
F 2 "Resistors_THT:R_Axial_DIN0207_L6.3mm_D2.5mm_P7.62mm_Horizontal" V 10330 5550 50  0001 C CNN
F 3 "" H 10400 5550 50  0001 C CNN
	1    10400 5550
	1    0    0    -1  
$EndComp
$Comp
L power:GND #PWR072
U 1 1 59651276
P 10400 5400
F 0 "#PWR072" H 10400 5150 50  0001 C CNN
F 1 "GND" H 10400 5250 50  0000 C CNN
F 2 "" H 10400 5400 50  0001 C CNN
F 3 "" H 10400 5400 50  0001 C CNN
	1    10400 5400
	-1   0    0    1   
$EndComp
$Comp
L device:R R14
U 1 1 59652919
P 3400 7250
F 0 "R14" V 3480 7250 50  0000 C CNN
F 1 "10k" V 3400 7250 50  0000 C CNN
F 2 "Resistors_THT:R_Axial_DIN0207_L6.3mm_D2.5mm_P7.62mm_Horizontal" V 3330 7250 50  0001 C CNN
F 3 "" H 3400 7250 50  0001 C CNN
	1    3400 7250
	1    0    0    -1  
$EndComp
$Comp
L power:GND #PWR073
U 1 1 59652C31
P 3400 7100
F 0 "#PWR073" H 3400 6850 50  0001 C CNN
F 1 "GND" H 3400 6950 50  0000 C CNN
F 2 "" H 3400 7100 50  0001 C CNN
F 3 "" H 3400 7100 50  0001 C CNN
	1    3400 7100
	-1   0    0    1   
$EndComp
$Comp
L power:GND #PWR074
U 1 1 59652CC1
P 3800 7500
F 0 "#PWR074" H 3800 7250 50  0001 C CNN
F 1 "GND" H 3800 7350 50  0000 C CNN
F 2 "" H 3800 7500 50  0001 C CNN
F 3 "" H 3800 7500 50  0001 C CNN
	1    3800 7500
	0    -1   -1   0   
$EndComp
$Comp
L device:R R16
U 1 1 596534BB
P 750 4950
F 0 "R16" V 830 4950 50  0000 C CNN
F 1 "10k" V 750 4950 50  0000 C CNN
F 2 "Resistors_THT:R_Axial_DIN0207_L6.3mm_D2.5mm_P7.62mm_Horizontal" V 680 4950 50  0001 C CNN
F 3 "" H 750 4950 50  0001 C CNN
	1    750  4950
	1    0    0    -1  
$EndComp
$Comp
L power:GND #PWR075
U 1 1 596535CB
P 1000 5650
F 0 "#PWR075" H 1000 5400 50  0001 C CNN
F 1 "GND" H 1000 5500 50  0000 C CNN
F 2 "" H 1000 5650 50  0001 C CNN
F 3 "" H 1000 5650 50  0001 C CNN
	1    1000 5650
	1    0    0    -1  
$EndComp
$Comp
L power:GND #PWR076
U 1 1 59653C9F
P 5100 5650
F 0 "#PWR076" H 5100 5400 50  0001 C CNN
F 1 "GND" H 5100 5500 50  0000 C CNN
F 2 "" H 5100 5650 50  0001 C CNN
F 3 "" H 5100 5650 50  0001 C CNN
	1    5100 5650
	1    0    0    -1  
$EndComp
$Comp
L device:POT RV2
U 1 1 596541A9
P 2100 5050
F 0 "RV2" V 1925 5050 50  0000 C CNN
F 1 "10k" V 2000 5050 50  0000 C CNN
F 2 "Potentiometers:Potentiometer_Trimmer_ACP_CA9h3.8_Vertical_Px3.8mm_Py5.0mm" H 2100 5050 50  0001 C CNN
F 3 "" H 2100 5050 50  0001 C CNN
	1    2100 5050
	1    0    0    -1  
$EndComp
$Comp
L device:CP C15
U 1 1 59654C88
P 3050 5250
F 0 "C15" H 3075 5350 50  0000 L CNN
F 1 "0.1µ" H 3075 5150 50  0000 L CNN
F 2 "Capacitors_THT:CP_Radial_D8.0mm_P3.80mm" H 3088 5100 50  0001 C CNN
F 3 "" H 3050 5250 50  0001 C CNN
	1    3050 5250
	1    0    0    -1  
$EndComp
$Comp
L device:R R19
U 1 1 596551BE
P 3500 5100
F 0 "R19" V 3580 5100 50  0000 C CNN
F 1 "330" V 3500 5100 50  0000 C CNN
F 2 "Resistors_THT:R_Axial_DIN0207_L6.3mm_D2.5mm_P7.62mm_Horizontal" V 3430 5100 50  0001 C CNN
F 3 "" H 3500 5100 50  0001 C CNN
	1    3500 5100
	1    0    0    -1  
$EndComp
$Comp
L device:LED D3
U 1 1 596552E0
P 3500 5400
F 0 "D3" H 3500 5500 50  0000 C CNN
F 1 "LED" H 3500 5300 50  0000 C CNN
F 2 "LEDs:LED_0805" H 3500 5400 50  0001 C CNN
F 3 "" H 3500 5400 50  0001 C CNN
	1    3500 5400
	0    -1   -1   0   
$EndComp
$Comp
L power:GND #PWR077
U 1 1 596568EE
P 10000 4600
F 0 "#PWR077" H 10000 4350 50  0001 C CNN
F 1 "GND" H 10000 4450 50  0000 C CNN
F 2 "" H 10000 4600 50  0001 C CNN
F 3 "" H 10000 4600 50  0001 C CNN
	1    10000 4600
	0    -1   -1   0   
$EndComp
$Comp
L power:GND #PWR078
U 1 1 59656AA6
P 5800 6300
F 0 "#PWR078" H 5800 6050 50  0001 C CNN
F 1 "GND" H 5800 6150 50  0000 C CNN
F 2 "" H 5800 6300 50  0001 C CNN
F 3 "" H 5800 6300 50  0001 C CNN
	1    5800 6300
	0    -1   -1   0   
$EndComp
$Comp
L power:GND #PWR079
U 1 1 59656B14
P 2100 2350
F 0 "#PWR079" H 2100 2100 50  0001 C CNN
F 1 "GND" H 2100 2200 50  0000 C CNN
F 2 "" H 2100 2350 50  0001 C CNN
F 3 "" H 2100 2350 50  0001 C CNN
	1    2100 2350
	0    -1   -1   0   
$EndComp
$Comp
L power:GND #PWR080
U 1 1 59656E9A
P 2150 7500
F 0 "#PWR080" H 2150 7250 50  0001 C CNN
F 1 "GND" H 2150 7350 50  0000 C CNN
F 2 "" H 2150 7500 50  0001 C CNN
F 3 "" H 2150 7500 50  0001 C CNN
	1    2150 7500
	1    0    0    -1  
$EndComp
$Comp
L power:+3.3V #PWR081
U 1 1 59658D02
P 10100 4700
F 0 "#PWR081" H 10100 4550 50  0001 C CNN
F 1 "+3.3V" H 10100 4840 50  0000 C CNN
F 2 "" H 10100 4700 50  0001 C CNN
F 3 "" H 10100 4700 50  0001 C CNN
	1    10100 4700
	0    1    1    0   
$EndComp
$Comp
L device:C C14
U 1 1 59659E49
P 2450 7150
F 0 "C14" H 2475 7250 50  0000 L CNN
F 1 "100n" H 2475 7050 50  0000 L CNN
F 2 "Capacitors_THT:C_Disc_D3.8mm_W2.6mm_P2.50mm" H 2488 7000 50  0001 C CNN
F 3 "" H 2450 7150 50  0001 C CNN
	1    2450 7150
	1    0    0    -1  
$EndComp
$Comp
L power:+3.3V #PWR082
U 1 1 5965AED5
P 2250 6900
F 0 "#PWR082" H 2250 6750 50  0001 C CNN
F 1 "+3.3V" H 2250 7040 50  0000 C CNN
F 2 "" H 2250 6900 50  0001 C CNN
F 3 "" H 2250 6900 50  0001 C CNN
	1    2250 6900
	1    0    0    -1  
$EndComp
$Comp
L power:+3.3V #PWR083
U 1 1 5965B6BE
P 5000 6600
F 0 "#PWR083" H 5000 6450 50  0001 C CNN
F 1 "+3.3V" H 5000 6740 50  0000 C CNN
F 2 "" H 5000 6600 50  0001 C CNN
F 3 "" H 5000 6600 50  0001 C CNN
	1    5000 6600
	-1   0    0    1   
$EndComp
$Comp
L device:C C12
U 1 1 5965BE31
P 5200 6450
F 0 "C12" H 5225 6550 50  0000 L CNN
F 1 "100n" H 5225 6350 50  0000 L CNN
F 2 "Capacitors_THT:C_Disc_D3.8mm_W2.6mm_P2.50mm" H 5238 6300 50  0001 C CNN
F 3 "" H 5200 6450 50  0001 C CNN
	1    5200 6450
	1    0    0    -1  
$EndComp
$Comp
L power:+3.3V #PWR084
U 1 1 5965D1A6
P 1200 2550
F 0 "#PWR084" H 1200 2400 50  0001 C CNN
F 1 "+3.3V" H 1200 2690 50  0000 C CNN
F 2 "" H 1200 2550 50  0001 C CNN
F 3 "" H 1200 2550 50  0001 C CNN
	1    1200 2550
	0    1    1    0   
$EndComp
$Comp
L power:GND #PWR085
U 1 1 5965D236
P 1200 2100
F 0 "#PWR085" H 1200 1850 50  0001 C CNN
F 1 "GND" H 1200 1950 50  0000 C CNN
F 2 "" H 1200 2100 50  0001 C CNN
F 3 "" H 1200 2100 50  0001 C CNN
	1    1200 2100
	0    -1   -1   0   
$EndComp
$Comp
L device:CP C13
U 1 1 5965D89E
P 1900 2350
F 0 "C13" H 1925 2450 50  0000 L CNN
F 1 "100µ" H 1925 2250 50  0000 L CNN
F 2 "Capacitors_THT:CP_Radial_D5.0mm_P2.50mm" H 1938 2200 50  0001 C CNN
F 3 "" H 1900 2350 50  0001 C CNN
	1    1900 2350
	0    -1   -1   0   
$EndComp
$Comp
L device:CP C11
U 1 1 5965D92F
P 1300 2350
F 0 "C11" H 1325 2450 50  0000 L CNN
F 1 "100µ" H 1325 2250 50  0000 L CNN
F 2 "Capacitors_THT:CP_Radial_D5.0mm_P2.50mm" H 1338 2200 50  0001 C CNN
F 3 "" H 1300 2350 50  0001 C CNN
	1    1300 2350
	0    -1   -1   0   
$EndComp
$Comp
L power:GND #PWR086
U 1 1 5965D9E3
P 1500 2350
F 0 "#PWR086" H 1500 2100 50  0001 C CNN
F 1 "GND" H 1500 2200 50  0000 C CNN
F 2 "" H 1500 2350 50  0001 C CNN
F 3 "" H 1500 2350 50  0001 C CNN
	1    1500 2350
	0    -1   -1   0   
$EndComp
$Comp
L power:GND #PWR087
U 1 1 5965EFDF
P 1200 6150
F 0 "#PWR087" H 1200 5900 50  0001 C CNN
F 1 "GND" H 1200 6000 50  0000 C CNN
F 2 "" H 1200 6150 50  0001 C CNN
F 3 "" H 1200 6150 50  0001 C CNN
	1    1200 6150
	0    -1   -1   0   
$EndComp
$Comp
L power:GND #PWR088
U 1 1 5965F177
P 3550 6150
F 0 "#PWR088" H 3550 5900 50  0001 C CNN
F 1 "GND" H 3550 6000 50  0000 C CNN
F 2 "" H 3550 6150 50  0001 C CNN
F 3 "" H 3550 6150 50  0001 C CNN
	1    3550 6150
	0    -1   -1   0   
$EndComp
$Comp
L power:+3.3V #PWR089
U 1 1 5965F226
P 3200 6600
F 0 "#PWR089" H 3200 6450 50  0001 C CNN
F 1 "+3.3V" H 3200 6740 50  0000 C CNN
F 2 "" H 3200 6600 50  0001 C CNN
F 3 "" H 3200 6600 50  0001 C CNN
	1    3200 6600
	-1   0    0    1   
$EndComp
$Comp
L device:R R17
U 1 1 5965F291
P 3450 6400
F 0 "R17" V 3530 6400 50  0000 C CNN
F 1 "4.7k" V 3450 6400 50  0000 C CNN
F 2 "Resistors_THT:R_Axial_DIN0207_L6.3mm_D2.5mm_P7.62mm_Horizontal" V 3380 6400 50  0001 C CNN
F 3 "" H 3450 6400 50  0001 C CNN
	1    3450 6400
	1    0    0    -1  
$EndComp
$Comp
L device:R R18
U 1 1 596609F5
P 1600 6450
F 0 "R18" V 1680 6450 50  0000 C CNN
F 1 "10k" V 1600 6450 50  0000 C CNN
F 2 "Resistors_THT:R_Axial_DIN0207_L6.3mm_D2.5mm_P7.62mm_Horizontal" V 1530 6450 50  0001 C CNN
F 3 "" H 1600 6450 50  0001 C CNN
	1    1600 6450
	0    1    1    0   
$EndComp
Text GLabel 3600 7100 2    60   Input ~ 0
BATTERY_5V_E
$Comp
L device:LED D5
U 1 1 5963A718
P 7550 5400
F 0 "D5" H 7550 5500 50  0000 C CNN
F 1 "LED" H 7550 5300 50  0000 C CNN
F 2 "LEDs:LED_0805" H 7550 5400 50  0001 C CNN
F 3 "" H 7550 5400 50  0001 C CNN
	1    7550 5400
	0    -1   -1   0   
$EndComp
$Comp
L device:R R36
U 1 1 5963A7B4
P 7550 5100
F 0 "R36" V 7630 5100 50  0000 C CNN
F 1 "330" V 7550 5100 50  0000 C CNN
F 2 "Resistors_THT:R_Axial_DIN0207_L6.3mm_D2.5mm_P7.62mm_Horizontal" V 7480 5100 50  0001 C CNN
F 3 "" H 7550 5100 50  0001 C CNN
	1    7550 5100
	1    0    0    -1  
$EndComp
$Comp
L device:CP C30
U 1 1 5963A923
P 7250 5100
F 0 "C30" H 7275 5200 50  0000 L CNN
F 1 "0.1µ" H 7275 5000 50  0000 L CNN
F 2 "Capacitors_THT:CP_Radial_D5.0mm_P2.50mm" H 7288 4950 50  0001 C CNN
F 3 "" H 7250 5100 50  0001 C CNN
	1    7250 5100
	1    0    0    -1  
$EndComp
$Comp
L device:POT RV1
U 1 1 5963A9C7
P 6150 5050
F 0 "RV1" V 5975 5050 50  0000 C CNN
F 1 "10k" V 6050 5050 50  0000 C CNN
F 2 "Potentiometers:Potentiometer_Trimmer_ACP_CA9h3.8_Vertical_Px3.8mm_Py5.0mm" H 6150 5050 50  0001 C CNN
F 3 "" H 6150 5050 50  0001 C CNN
	1    6150 5050
	1    0    0    -1  
$EndComp
$Comp
L device:R R31
U 1 1 5963AB75
P 5000 5100
F 0 "R31" V 5080 5100 50  0000 C CNN
F 1 "10k" V 5000 5100 50  0000 C CNN
F 2 "Resistors_THT:R_Axial_DIN0207_L6.3mm_D2.5mm_P7.62mm_Horizontal" V 4930 5100 50  0001 C CNN
F 3 "" H 5000 5100 50  0001 C CNN
	1    5000 5100
	1    0    0    -1  
$EndComp
$Comp
L pir:PIR U7
U 1 1 59643607
P 7400 1250
F 0 "U7" H 7400 1500 60  0000 C CNN
F 1 "PIR" H 7400 1250 60  0000 C CNN
F 2 "PIR:PIR" H 7400 1250 60  0001 C CNN
F 3 "" H 7400 1250 60  0001 C CNN
	1    7400 1250
	0    1    1    0   
$EndComp
$Comp
L power:GND #PWR090
U 1 1 5963CD94
P 7700 2650
F 0 "#PWR090" H 7700 2400 50  0001 C CNN
F 1 "GND" H 7700 2500 50  0000 C CNN
F 2 "" H 7700 2650 50  0001 C CNN
F 3 "" H 7700 2650 50  0001 C CNN
	1    7700 2650
	1    0    0    -1  
$EndComp
$Comp
L device:C C31
U 1 1 5963DC97
P 7850 1900
F 0 "C31" H 7875 2000 50  0000 L CNN
F 1 "0.01µ" H 7875 1800 50  0000 L CNN
F 2 "Capacitors_THT:C_Disc_D3.8mm_W2.6mm_P2.50mm" H 7888 1750 50  0001 C CNN
F 3 "" H 7850 1900 50  0001 C CNN
	1    7850 1900
	1    0    0    -1  
$EndComp
$Comp
L device:R R37
U 1 1 5963DDAB
P 8100 1900
F 0 "R37" V 8180 1900 50  0000 C CNN
F 1 "47k" V 8100 1900 50  0000 C CNN
F 2 "Resistors_THT:R_Axial_DIN0207_L6.3mm_D2.5mm_P7.62mm_Horizontal" V 8030 1900 50  0001 C CNN
F 3 "" H 8100 1900 50  0001 C CNN
	1    8100 1900
	1    0    0    -1  
$EndComp
$Comp
L power:+5V #PWR091
U 1 1 5963DEC5
P 8800 650
F 0 "#PWR091" H 8800 500 50  0001 C CNN
F 1 "+5V" H 8800 790 50  0000 C CNN
F 2 "" H 8800 650 50  0001 C CNN
F 3 "" H 8800 650 50  0001 C CNN
	1    8800 650 
	1    0    0    -1  
$EndComp
$Comp
L device:R R39
U 1 1 5963E22D
P 8350 1900
F 0 "R39" V 8430 1900 50  0000 C CNN
F 1 "1M" V 8350 1900 50  0000 C CNN
F 2 "Resistors_THT:R_Axial_DIN0207_L6.3mm_D2.5mm_P7.62mm_Horizontal" V 8280 1900 50  0001 C CNN
F 3 "" H 8350 1900 50  0001 C CNN
	1    8350 1900
	1    0    0    -1  
$EndComp
$Comp
L device:R R43
U 1 1 5964155D
P 10350 1250
F 0 "R43" V 10430 1250 50  0000 C CNN
F 1 "15k" V 10350 1250 50  0000 C CNN
F 2 "Resistors_THT:R_Axial_DIN0207_L6.3mm_D2.5mm_P7.62mm_Horizontal" V 10280 1250 50  0001 C CNN
F 3 "" H 10350 1250 50  0001 C CNN
	1    10350 1250
	0    1    1    0   
$EndComp
$Comp
L device:R R44
U 1 1 596416C3
P 10350 1550
F 0 "R44" V 10430 1550 50  0000 C CNN
F 1 "10k" V 10350 1550 50  0000 C CNN
F 2 "Resistors_THT:R_Axial_DIN0207_L6.3mm_D2.5mm_P7.62mm_Horizontal" V 10280 1550 50  0001 C CNN
F 3 "" H 10350 1550 50  0001 C CNN
	1    10350 1550
	0    1    1    0   
$EndComp
$Comp
L device:R R45
U 1 1 5964178B
P 10350 1650
F 0 "R45" V 10430 1650 50  0000 C CNN
F 1 "2.2k" V 10350 1650 50  0000 C CNN
F 2 "Resistors_THT:R_Axial_DIN0207_L6.3mm_D2.5mm_P7.62mm_Horizontal" V 10280 1650 50  0001 C CNN
F 3 "" H 10350 1650 50  0001 C CNN
	1    10350 1650
	0    1    1    0   
$EndComp
$Comp
L device:C C36
U 1 1 59641BB6
P 10500 2000
F 0 "C36" H 10525 2100 50  0000 L CNN
F 1 "10n" H 10525 1900 50  0000 L CNN
F 2 "Capacitors_THT:C_Disc_D3.8mm_W2.6mm_P2.50mm" H 10538 1850 50  0001 C CNN
F 3 "" H 10500 2000 50  0001 C CNN
	1    10500 2000
	1    0    0    -1  
$EndComp
$Comp
L bis00001:BIS00001 IC5
U 1 1 596449C5
P 9600 1450
F 0 "IC5" H 9600 1850 60  0000 C CNN
F 1 "BIS00001" V 9600 1450 60  0000 C CNN
F 2 "bis0001:BIS0001-DIL16" H 9600 1550 60  0001 C CNN
F 3 "" H 9600 1550 60  0001 C CNN
	1    9600 1450
	-1   0    0    1   
$EndComp
$Comp
L device:C C37
U 1 1 59645A1B
P 10750 2000
F 0 "C37" H 10775 2100 50  0000 L CNN
F 1 "10n" H 10775 1900 50  0000 L CNN
F 2 "Capacitors_THT:C_Disc_D3.8mm_W2.6mm_P2.50mm" H 10788 1850 50  0001 C CNN
F 3 "" H 10750 2000 50  0001 C CNN
	1    10750 2000
	1    0    0    -1  
$EndComp
$Comp
L device:R R41
U 1 1 596494AE
P 8800 1650
F 0 "R41" V 8880 1650 50  0000 C CNN
F 1 "2M" V 8800 1650 50  0000 C CNN
F 2 "Resistors_THT:R_Axial_DIN0207_L6.3mm_D2.5mm_P7.62mm_Horizontal" V 8730 1650 50  0001 C CNN
F 3 "" H 8800 1650 50  0001 C CNN
	1    8800 1650
	0    1    1    0   
$EndComp
$Comp
L device:C C34
U 1 1 59649569
P 8800 1800
F 0 "C34" H 8825 1900 50  0000 L CNN
F 1 "0.01µ" H 8825 1700 50  0000 L CNN
F 2 "Capacitors_THT:C_Disc_D3.8mm_W2.6mm_P2.50mm" H 8838 1650 50  0001 C CNN
F 3 "" H 8800 1800 50  0001 C CNN
	1    8800 1800
	0    1    1    0   
$EndComp
$Comp
L device:R R42
U 1 1 59649629
P 8950 2100
F 0 "R42" V 9030 2100 50  0000 C CNN
F 1 "47k" V 8950 2100 50  0000 C CNN
F 2 "Resistors_THT:R_Axial_DIN0207_L6.3mm_D2.5mm_P7.62mm_Horizontal" V 8880 2100 50  0001 C CNN
F 3 "" H 8950 2100 50  0001 C CNN
	1    8950 2100
	1    0    0    -1  
$EndComp
$Comp
L device:C C35
U 1 1 596496E6
P 8950 2400
F 0 "C35" H 8975 2500 50  0000 L CNN
F 1 "47µ" H 8975 2300 50  0000 L CNN
F 2 "Capacitors_THT:C_Disc_D3.8mm_W2.6mm_P2.50mm" H 8988 2250 50  0001 C CNN
F 3 "" H 8950 2400 50  0001 C CNN
	1    8950 2400
	1    0    0    -1  
$EndComp
$Comp
L device:R R38
U 1 1 5964A648
P 8350 800
F 0 "R38" H 8430 800 50  0000 C CNN
F 1 "10k" V 8350 800 50  0000 C CNN
F 2 "Resistors_THT:R_Axial_DIN0207_L6.3mm_D2.5mm_P7.62mm_Horizontal" V 8280 800 50  0001 C CNN
F 3 "" H 8350 800 50  0001 C CNN
	1    8350 800 
	0    1    1    0   
$EndComp
$Comp
L device:C C33
U 1 1 5964AFA1
P 8700 800
F 0 "C33" H 8725 900 50  0000 L CNN
F 1 "0.01µ" H 8725 700 50  0000 L CNN
F 2 "Capacitors_THT:C_Disc_D3.8mm_W2.6mm_P2.50mm" H 8738 650 50  0001 C CNN
F 3 "" H 8700 800 50  0001 C CNN
	1    8700 800 
	0    1    1    0   
$EndComp
$Comp
L device:R R40
U 1 1 5964B064
P 8700 950
F 0 "R40" H 8780 950 50  0000 C CNN
F 1 "1M" V 8700 950 50  0000 C CNN
F 2 "Resistors_THT:R_Axial_DIN0207_L6.3mm_D2.5mm_P7.62mm_Horizontal" V 8630 950 50  0001 C CNN
F 3 "" H 8700 950 50  0001 C CNN
	1    8700 950 
	0    1    1    0   
$EndComp
Wire Wire Line
	1150 2100 1200 2100
Wire Wire Line
	1150 2300 1150 2550
Wire Wire Line
	1750 2200 1750 2550
Wire Wire Line
	1150 2200 1750 2200
Connection ~ 1750 2350
Wire Notes Line
	700  1900 700  2700
Wire Notes Line
	700  2700 2300 2700
Wire Notes Line
	2300 2700 2300 1900
Wire Notes Line
	2300 1900 700  1900
Wire Wire Line
	10300 5700 10500 5700
Connection ~ 10400 5700
Wire Wire Line
	10300 5800 10300 5900
Wire Notes Line
	9900 5150 9900 6150
Wire Notes Line
	9900 6150 11050 6150
Wire Notes Line
	11050 6150 11050 5150
Wire Notes Line
	11050 5150 9900 5150
Wire Wire Line
	1200 6150 1000 6150
Wire Wire Line
	1200 6450 1000 6450
Wire Notes Line
	600  6050 600  6600
Wire Notes Line
	2050 6050 2050 6600
Wire Notes Line
	2050 6600 600  6600
Wire Notes Line
	2050 6050 600  6050
Wire Wire Line
	1000 6350 1500 6350
Wire Wire Line
	1450 6450 1450 6350
Connection ~ 1450 6350
Wire Wire Line
	1850 6500 1750 6500
Wire Wire Line
	1750 6500 1750 6450
Connection ~ 2250 7200
Wire Wire Line
	1450 7500 2250 7500
Wire Wire Line
	1450 7500 1450 7300
Connection ~ 2150 7500
Wire Wire Line
	2450 7000 2250 7000
Wire Wire Line
	2250 7000 2250 6900
Connection ~ 2250 7000
Wire Wire Line
	1450 7100 1200 7100
Wire Wire Line
	1450 7000 1200 7000
Wire Notes Line
	600  6700 600  7750
Wire Notes Line
	600  7750 2700 7750
Wire Notes Line
	2700 7750 2700 6700
Wire Notes Line
	2700 6700 600  6700
Wire Wire Line
	5000 6400 5000 6600
Wire Wire Line
	5350 6100 5000 6100
Wire Wire Line
	5350 6200 5000 6200
Wire Wire Line
	5000 6300 5800 6300
Connection ~ 5200 6300
Wire Wire Line
	5000 6600 5200 6600
Connection ~ 5000 6600
Wire Notes Line
	4550 5950 4550 6850
Wire Notes Line
	4550 6850 6050 6850
Wire Notes Line
	6050 6850 6050 5950
Wire Notes Line
	6050 5950 4550 5950
Wire Wire Line
	2150 1350 1250 1350
Wire Wire Line
	2150 1250 1250 1250
Wire Wire Line
	2150 1150 1250 1150
Wire Wire Line
	2150 1050 1250 1050
Wire Wire Line
	1850 2900 1100 2900
Wire Wire Line
	1850 3000 1100 3000
Wire Wire Line
	1850 3100 1100 3100
Wire Wire Line
	1850 3200 1100 3200
Wire Wire Line
	1850 3300 1100 3300
Wire Wire Line
	1850 3400 1100 3400
Wire Wire Line
	1850 3500 1100 3500
Wire Wire Line
	1100 3600 1850 3600
Wire Wire Line
	1850 3700 1100 3700
Wire Wire Line
	1850 3800 1100 3800
Wire Notes Line
	700  2800 700  3950
Wire Notes Line
	700  3950 2550 3950
Wire Notes Line
	2550 3950 2550 2800
Wire Notes Line
	2550 2800 700  2800
Wire Notes Line
	700  650  700  1800
Wire Notes Line
	700  1800 3150 1800
Wire Notes Line
	3150 1800 3150 650 
Wire Notes Line
	3150 650  700  650 
Wire Wire Line
	10000 4600 9850 4600
Wire Wire Line
	10100 4700 9850 4700
Wire Wire Line
	2150 950  1250 950 
Wire Wire Line
	3550 6150 3200 6150
Wire Wire Line
	3200 6250 3750 6250
Wire Wire Line
	3200 6350 3200 6600
Wire Wire Line
	3450 6550 3200 6550
Connection ~ 3200 6550
Connection ~ 3450 6250
Wire Notes Line
	2800 6800 2800 5950
Wire Notes Line
	2800 5950 4400 5950
Wire Notes Line
	4400 5950 4400 6800
Wire Notes Line
	4400 6800 2800 6800
Wire Wire Line
	3300 7400 3600 7400
Connection ~ 3400 7400
Wire Wire Line
	3800 7500 3300 7500
Wire Notes Line
	9450 4950 11100 4950
Wire Notes Line
	11100 4950 11100 4150
Wire Notes Line
	11100 4150 9450 4150
Wire Notes Line
	9450 4150 9450 4950
Wire Wire Line
	1250 1450 2150 1450
Wire Wire Line
	1250 1550 2200 1550
Wire Wire Line
	1250 1650 2200 1650
Wire Wire Line
	1250 850  2150 850 
Wire Wire Line
	1250 750  2150 750 
Wire Wire Line
	900  4700 750  4700
Wire Wire Line
	750  4800 900  4800
Wire Wire Line
	1700 4700 2400 4700
Wire Wire Line
	1700 4800 1850 4800
Wire Notes Line
	2800 7750 4400 7750
Wire Notes Line
	4400 7750 4400 6900
Wire Notes Line
	4400 6900 2800 6900
Wire Notes Line
	2800 6900 2800 7750
Wire Notes Line
	4800 5850 8450 5850
Wire Notes Line
	8450 4350 4800 4350
Wire Notes Line
	4800 4350 4800 5850
Wire Notes Line
	8450 5850 8450 4350
Wire Wire Line
	750  4450 750  4800
Wire Wire Line
	750  5100 750  5650
Wire Wire Line
	750  5650 3500 5650
Wire Wire Line
	1850 4800 1850 5650
Connection ~ 1000 5650
Wire Wire Line
	750  4450 2600 4450
Connection ~ 750  4700
Wire Wire Line
	2600 4450 2600 4650
Connection ~ 950  4450
Connection ~ 1850 5650
Wire Wire Line
	2600 5650 2600 5250
Wire Wire Line
	2400 4700 2400 4850
Wire Wire Line
	2100 4700 2100 4900
Connection ~ 2100 4700
Wire Wire Line
	2100 5200 2100 5650
Connection ~ 2100 5650
Wire Wire Line
	2400 5050 2250 5050
Wire Wire Line
	3050 5650 3050 5400
Connection ~ 2600 5650
Wire Wire Line
	3000 4950 3600 4950
Wire Wire Line
	3050 4950 3050 5100
Connection ~ 3050 4950
Wire Wire Line
	3500 5650 3500 5550
Connection ~ 3050 5650
Wire Notes Line
	650  4250 650  5850
Wire Notes Line
	650  5850 4700 5850
Wire Notes Line
	4700 5850 4700 4250
Wire Notes Line
	4700 4250 650  4250
Connection ~ 1150 2350
Connection ~ 750  4800
Connection ~ 3500 4950
Connection ~ 3500 5650
Wire Wire Line
	2100 2350 2050 2350
Wire Wire Line
	1500 2350 1450 2350
Wire Wire Line
	1150 2550 1200 2550
Connection ~ 3700 6250
Wire Wire Line
	2250 7300 2450 7300
Wire Wire Line
	2250 7100 2250 7500
Connection ~ 2250 7300
Wire Wire Line
	5850 4750 6450 4750
Wire Wire Line
	6450 4750 6450 4850
Wire Wire Line
	6150 4900 6150 4750
Connection ~ 6150 4750
Wire Wire Line
	6450 5050 6300 5050
Wire Wire Line
	5000 5650 7550 5650
Wire Wire Line
	6150 5650 6150 5200
Wire Wire Line
	5850 4850 5900 4850
Wire Wire Line
	5900 4850 5900 5650
Connection ~ 5900 5650
Wire Wire Line
	5000 5250 5000 5650
Connection ~ 5100 5650
Wire Wire Line
	5000 4850 5050 4850
Wire Wire Line
	5000 4550 5000 4950
Wire Wire Line
	5050 4750 5000 4750
Connection ~ 5000 4850
Wire Wire Line
	5000 4550 6650 4550
Connection ~ 5000 4750
Wire Wire Line
	6650 4550 6650 4650
Connection ~ 5050 4550
Wire Wire Line
	6650 5650 6650 5250
Connection ~ 6150 5650
Wire Wire Line
	7050 4950 7650 4950
Connection ~ 7250 4950
Wire Wire Line
	7250 5650 7250 5250
Connection ~ 6650 5650
Connection ~ 7550 4950
Wire Wire Line
	7550 5650 7550 5550
Connection ~ 7250 5650
Wire Wire Line
	7850 1550 9100 1550
Wire Wire Line
	8100 1550 8100 1750
Connection ~ 8100 1550
Wire Wire Line
	7850 950  7850 1750
Connection ~ 7850 1550
Wire Wire Line
	9100 650  9100 1050
Wire Wire Line
	7300 650  10100 650 
Connection ~ 8800 650 
Wire Wire Line
	10100 650  10100 1050
Connection ~ 9100 650 
Wire Wire Line
	8950 1250 8950 650 
Connection ~ 8950 650 
Wire Wire Line
	10100 1150 10150 1150
Wire Wire Line
	10150 1150 10150 2600
Wire Wire Line
	7500 2600 10750 2600
Wire Wire Line
	7700 2600 7700 2650
Connection ~ 7700 2600
Wire Wire Line
	9100 1250 8950 1250
Wire Wire Line
	10100 1250 10200 1250
Wire Wire Line
	10500 1250 10750 1250
Wire Wire Line
	10750 1250 10750 1850
Wire Wire Line
	10750 2600 10750 2150
Connection ~ 10150 2600
Wire Wire Line
	10500 2150 10500 2600
Connection ~ 10500 2600
Wire Wire Line
	10500 1450 10500 1850
Wire Wire Line
	10500 1450 10100 1450
Connection ~ 10500 1550
Wire Wire Line
	10100 1650 10200 1650
Wire Wire Line
	10500 1650 10650 1650
Wire Wire Line
	10200 1550 10100 1550
Wire Wire Line
	10100 1350 10750 1350
Connection ~ 10750 1350
Wire Wire Line
	10100 1750 10850 1750
Wire Wire Line
	8350 2050 8350 2600
Connection ~ 8350 2600
Wire Wire Line
	8100 2050 8100 2600
Connection ~ 8100 2600
Wire Wire Line
	7850 2050 7850 2600
Connection ~ 7850 2600
Wire Wire Line
	7500 950  7850 950 
Wire Wire Line
	9100 1750 9100 1900
Wire Wire Line
	9100 1900 8500 1900
Wire Wire Line
	8500 1100 8500 1900
Wire Wire Line
	8650 1650 8650 1800
Wire Wire Line
	8950 1650 8950 1950
Connection ~ 8950 1800
Wire Wire Line
	9100 1650 8950 1650
Wire Wire Line
	8500 1650 8650 1650
Connection ~ 8500 1650
Wire Wire Line
	8850 800  8850 1350
Wire Wire Line
	8850 1350 9100 1350
Connection ~ 8850 950 
Wire Wire Line
	8550 800  8550 1450
Wire Wire Line
	8550 800  8500 800 
Wire Wire Line
	8200 800  8150 800 
Wire Wire Line
	8500 1100 8150 1100
Wire Wire Line
	8550 1450 9100 1450
Connection ~ 8550 950 
Wire Wire Line
	9100 1150 8350 1150
Wire Wire Line
	8350 1150 8350 1750
Wire Notes Line
	7100 500  7100 2900
Wire Notes Line
	7100 2900 11150 2900
Wire Notes Line
	11150 2900 11150 500 
Wire Notes Line
	11150 500  7100 500 
Wire Wire Line
	8950 2550 8950 2600
Connection ~ 8950 2600
Text GLabel 10650 1650 2    60   Input ~ 0
PIR_5V_E
$Comp
L CMCentralSensorSystem_ExtensionBoard-rescue:CONN_01X02-RESCUE-CMCentralSensorSystem-RESCUE-CMCentralSensorSystem_ExtensionBoard J1
U 1 1 59640AD9
P 2950 3150
AR Path="/59640AD9" Ref="J1"  Part="1" 
AR Path="/5905B356/59640AD9" Ref="J1"  Part="1" 
F 0 "J1" H 2950 3300 50  0000 C CNN
F 1 "MICRO" V 3050 3150 50  0000 C CNN
F 2 "Pin_Headers:Pin_Header_Straight_1x02_Pitch2.54mm" H 2950 3150 50  0001 C CNN
F 3 "" H 2950 3150 50  0001 C CNN
	1    2950 3150
	-1   0    0    1   
$EndComp
$Comp
L device:R R29
U 1 1 59640F5F
P 3850 3100
F 0 "R29" V 3930 3100 50  0000 C CNN
F 1 "10k" V 3850 3100 50  0000 C CNN
F 2 "Resistors_THT:R_Axial_DIN0207_L6.3mm_D2.5mm_P7.62mm_Horizontal" V 3780 3100 50  0001 C CNN
F 3 "" H 3850 3100 50  0001 C CNN
	1    3850 3100
	0    1    1    0   
$EndComp
$Comp
L power:GND #PWR092
U 1 1 5964106B
P 3200 3750
F 0 "#PWR092" H 3200 3500 50  0001 C CNN
F 1 "GND" H 3200 3600 50  0000 C CNN
F 2 "" H 3200 3750 50  0001 C CNN
F 3 "" H 3200 3750 50  0001 C CNN
	1    3200 3750
	1    0    0    -1  
$EndComp
$Comp
L device:CP C24
U 1 1 596411FE
P 3450 3100
F 0 "C24" H 3475 3200 50  0000 L CNN
F 1 "4.7µ" V 3300 3050 50  0000 L CNN
F 2 "Capacitors_THT:CP_Radial_D5.0mm_P2.50mm" H 3488 2950 50  0001 C CNN
F 3 "" H 3450 3100 50  0001 C CNN
	1    3450 3100
	0    -1   -1   0   
$EndComp
$Comp
L linear:TLC272 U6
U 1 1 5964146A
P 4450 3000
F 0 "U6" H 4450 3200 50  0000 L CNN
F 1 "TLC272" H 4450 2800 50  0000 L CNN
F 2 "Housings_DIP:DIP-8_W7.62mm" H 4450 3000 50  0001 C CNN
F 3 "" H 4450 3000 50  0001 C CNN
	1    4450 3000
	1    0    0    -1  
$EndComp
$Comp
L linear:TLC272 U6
U 2 1 59641515
P 5650 3100
F 0 "U6" H 5650 3300 50  0000 L CNN
F 1 "TLC272" H 5650 2900 50  0000 L CNN
F 2 "Housings_DIP:DIP-8_W7.62mm" H 5650 3100 50  0001 C CNN
F 3 "" H 5650 3100 50  0001 C CNN
	2    5650 3100
	1    0    0    -1  
$EndComp
$Comp
L device:R R15
U 1 1 59641ADE
P 3200 2600
F 0 "R15" V 3280 2600 50  0000 C CNN
F 1 "2.2k" V 3200 2600 50  0000 C CNN
F 2 "Resistors_THT:R_Axial_DIN0207_L6.3mm_D2.5mm_P7.62mm_Horizontal" V 3130 2600 50  0001 C CNN
F 3 "" H 3200 2600 50  0001 C CNN
	1    3200 2600
	-1   0    0    1   
$EndComp
$Comp
L power:+5V #PWR093
U 1 1 59641EB4
P 6200 2050
F 0 "#PWR093" H 6200 1900 50  0001 C CNN
F 1 "+5V" H 6200 2190 50  0000 C CNN
F 2 "" H 6200 2050 50  0001 C CNN
F 3 "" H 6200 2050 50  0001 C CNN
	1    6200 2050
	0    1    1    0   
$EndComp
$Comp
L device:C C26
U 1 1 59641F73
P 4600 2350
F 0 "C26" H 4625 2450 50  0000 L CNN
F 1 "12p" V 4500 2150 50  0000 L CNN
F 2 "Capacitors_THT:C_Disc_D3.8mm_W2.6mm_P2.50mm" H 4638 2200 50  0001 C CNN
F 3 "" H 4600 2350 50  0001 C CNN
	1    4600 2350
	0    1    1    0   
$EndComp
$Comp
L power:+5V #PWR094
U 1 1 596427A4
P 4450 2700
F 0 "#PWR094" H 4450 2550 50  0001 C CNN
F 1 "+5V" H 4450 2840 50  0000 C CNN
F 2 "" H 4450 2700 50  0001 C CNN
F 3 "" H 4450 2700 50  0001 C CNN
	1    4450 2700
	0    1    1    0   
$EndComp
Wire Wire Line
	4450 2700 4350 2700
$Comp
L power:GND #PWR095
U 1 1 596429A5
P 4400 3300
F 0 "#PWR095" H 4400 3050 50  0001 C CNN
F 1 "GND" H 4400 3150 50  0000 C CNN
F 2 "" H 4400 3300 50  0001 C CNN
F 3 "" H 4400 3300 50  0001 C CNN
	1    4400 3300
	0    -1   -1   0   
$EndComp
Wire Wire Line
	4400 3300 4350 3300
Wire Wire Line
	4850 2350 4850 3000
$Comp
L device:R R30
U 1 1 5964410F
P 4600 2500
F 0 "R30" V 4680 2500 50  0000 C CNN
F 1 "1M" V 4600 2500 50  0000 C CNN
F 2 "Resistors_THT:R_Axial_DIN0207_L6.3mm_D2.5mm_P7.62mm_Horizontal" V 4530 2500 50  0001 C CNN
F 3 "" H 4600 2500 50  0001 C CNN
	1    4600 2500
	0    1    1    0   
$EndComp
Wire Wire Line
	4850 2350 4750 2350
Wire Wire Line
	4450 2350 4100 2350
Wire Wire Line
	4100 2350 4100 3100
Wire Wire Line
	4000 3100 4150 3100
Connection ~ 4100 3100
Wire Wire Line
	3700 3100 3600 3100
Wire Wire Line
	3150 3100 3300 3100
Wire Wire Line
	3200 2750 3200 3100
Connection ~ 3200 3100
Wire Wire Line
	4150 2900 4000 2900
$Comp
L device:R R27
U 1 1 596452DB
P 3650 2400
F 0 "R27" V 3730 2400 50  0000 C CNN
F 1 "10k" V 3650 2400 50  0000 C CNN
F 2 "Resistors_THT:R_Axial_DIN0207_L6.3mm_D2.5mm_P7.62mm_Horizontal" V 3580 2400 50  0001 C CNN
F 3 "" H 3650 2400 50  0001 C CNN
	1    3650 2400
	-1   0    0    1   
$EndComp
$Comp
L device:R R28
U 1 1 596453C0
P 3650 2750
F 0 "R28" V 3730 2750 50  0000 C CNN
F 1 "10k" V 3650 2750 50  0000 C CNN
F 2 "Resistors_THT:R_Axial_DIN0207_L6.3mm_D2.5mm_P7.62mm_Horizontal" V 3580 2750 50  0001 C CNN
F 3 "" H 3650 2750 50  0001 C CNN
	1    3650 2750
	-1   0    0    1   
$EndComp
$Comp
L power:GND #PWR096
U 1 1 5964572E
P 3700 2900
F 0 "#PWR096" H 3700 2650 50  0001 C CNN
F 1 "GND" H 3700 2750 50  0000 C CNN
F 2 "" H 3700 2900 50  0001 C CNN
F 3 "" H 3700 2900 50  0001 C CNN
	1    3700 2900
	0    -1   -1   0   
$EndComp
Wire Wire Line
	3650 2600 4000 2600
Wire Wire Line
	4000 2600 4000 3400
Wire Wire Line
	3650 2550 3650 2600
Connection ~ 4000 2900
$Comp
L device:C C25
U 1 1 59645D4D
P 4000 3550
F 0 "C25" H 4025 3650 50  0000 L CNN
F 1 "1µ" H 4025 3450 50  0000 L CNN
F 2 "Capacitors_THT:C_Disc_D3.8mm_W2.6mm_P2.50mm" H 4038 3400 50  0001 C CNN
F 3 "" H 4000 3550 50  0001 C CNN
	1    4000 3550
	-1   0    0    1   
$EndComp
Wire Wire Line
	4000 3750 4000 3700
Wire Wire Line
	3150 3750 6350 3750
Wire Wire Line
	3150 3200 3150 3750
Connection ~ 3200 3750
Wire Wire Line
	4850 2450 6350 2450
Connection ~ 4850 2450
Wire Wire Line
	4450 2500 4100 2500
Connection ~ 4100 2500
$Comp
L device:C C27
U 1 1 59647575
P 5000 3000
F 0 "C27" H 5025 3100 50  0000 L CNN
F 1 "100n" V 4850 2950 50  0000 L CNN
F 2 "Capacitors_THT:C_Disc_D3.8mm_W2.6mm_P2.50mm" H 5038 2850 50  0001 C CNN
F 3 "" H 5000 3000 50  0001 C CNN
	1    5000 3000
	0    1    1    0   
$EndComp
$Comp
L device:R R32
U 1 1 59647751
P 5150 3150
F 0 "R32" V 5230 3150 50  0000 C CNN
F 1 "100k" V 5150 3150 50  0000 C CNN
F 2 "Resistors_THT:R_Axial_DIN0207_L6.3mm_D2.5mm_P7.62mm_Horizontal" V 5080 3150 50  0001 C CNN
F 3 "" H 5150 3150 50  0001 C CNN
	1    5150 3150
	-1   0    0    1   
$EndComp
Wire Wire Line
	5350 3000 5150 3000
$Comp
L device:R R34
U 1 1 59647C82
P 5350 3400
F 0 "R34" V 5430 3400 50  0000 C CNN
F 1 "1k" V 5350 3400 50  0000 C CNN
F 2 "Resistors_THT:R_Axial_DIN0207_L6.3mm_D2.5mm_P7.62mm_Horizontal" V 5280 3400 50  0001 C CNN
F 3 "" H 5350 3400 50  0001 C CNN
	1    5350 3400
	-1   0    0    1   
$EndComp
Connection ~ 4000 3750
$Comp
L device:R R33
U 1 1 5964826E
P 5350 2750
F 0 "R33" V 5430 2750 50  0000 C CNN
F 1 "68k" V 5350 2750 50  0000 C CNN
F 2 "Resistors_THT:R_Axial_DIN0207_L6.3mm_D2.5mm_P7.62mm_Horizontal" V 5280 2750 50  0001 C CNN
F 3 "" H 5350 2750 50  0001 C CNN
	1    5350 2750
	-1   0    0    1   
$EndComp
Wire Wire Line
	5350 2050 5350 2600
Wire Wire Line
	3200 2050 5500 2050
Wire Wire Line
	3650 2050 3650 2250
Connection ~ 3650 2050
Wire Wire Line
	3200 2450 3200 2050
$Comp
L device:CP C28
U 1 1 59648EEE
P 5050 2200
F 0 "C28" H 5075 2300 50  0000 L CNN
F 1 "2.2µ" H 4800 2300 50  0000 L CNN
F 2 "Capacitors_THT:CP_Radial_D5.0mm_P2.50mm" H 5088 2050 50  0001 C CNN
F 3 "" H 5050 2200 50  0001 C CNN
	1    5050 2200
	1    0    0    -1  
$EndComp
Wire Wire Line
	5950 3100 6050 3100
$Comp
L device:R R35
U 1 1 596499E0
P 6200 3100
F 0 "R35" V 6280 3100 50  0000 C CNN
F 1 "1.2k" V 6200 3100 50  0000 C CNN
F 2 "Resistors_THT:R_Axial_DIN0207_L6.3mm_D2.5mm_P7.62mm_Horizontal" V 6130 3100 50  0001 C CNN
F 3 "" H 6200 3100 50  0001 C CNN
	1    6200 3100
	0    -1   -1   0   
$EndComp
$Comp
L device:C C29
U 1 1 59649AE9
P 6350 3250
F 0 "C29" H 6375 3350 50  0000 L CNN
F 1 "2.2µ" H 6100 3350 50  0000 L CNN
F 2 "Capacitors_THT:C_Disc_D3.8mm_W2.6mm_P2.50mm" H 6388 3100 50  0001 C CNN
F 3 "" H 6350 3250 50  0001 C CNN
	1    6350 3250
	-1   0    0    1   
$EndComp
Wire Wire Line
	6350 3750 6350 3400
Connection ~ 5350 3750
$Comp
L power:+5V #PWR097
U 1 1 5964A0F8
P 5600 2800
F 0 "#PWR097" H 5600 2650 50  0001 C CNN
F 1 "+5V" H 5600 2940 50  0000 C CNN
F 2 "" H 5600 2800 50  0001 C CNN
F 3 "" H 5600 2800 50  0001 C CNN
	1    5600 2800
	0    1    1    0   
$EndComp
$Comp
L power:GND #PWR098
U 1 1 5964A1DB
P 5600 3400
F 0 "#PWR098" H 5600 3150 50  0001 C CNN
F 1 "GND" H 5600 3250 50  0000 C CNN
F 2 "" H 5600 3400 50  0001 C CNN
F 3 "" H 5600 3400 50  0001 C CNN
	1    5600 3400
	0    -1   -1   0   
$EndComp
Wire Wire Line
	5600 3400 5550 3400
Wire Wire Line
	5600 2800 5550 2800
Wire Wire Line
	6350 3100 6500 3100
Wire Notes Line
	2800 1850 6950 1850
Wire Notes Line
	2800 1850 2800 4000
Wire Notes Line
	2800 4000 6950 4000
Wire Notes Line
	6950 4000 6950 1850
Text GLabel 6500 3100 2    60   Input ~ 0
AudioSensor_5V_E
Text GLabel 6350 2450 2    60   Input ~ 0
SPL_5V
Connection ~ 5050 2050
Wire Wire Line
	5350 2900 5350 3250
Connection ~ 5350 3200
Wire Wire Line
	5350 3550 5350 3750
Wire Wire Line
	4850 3000 4750 3000
Wire Wire Line
	4850 2500 4750 2500
Connection ~ 4850 2500
Connection ~ 4850 3000
Connection ~ 5150 3000
Connection ~ 3650 2600
Connection ~ 6350 3100
Wire Wire Line
	5150 3300 5150 3750
Connection ~ 5150 3750
$Comp
L dp_devices:INDUCTOR L2
U 1 1 59654414
P 5800 2050
F 0 "L2" H 5600 2150 45  0000 L BNN
F 1 "INDUCTOR" H 5600 1950 45  0000 L BNN
F 2 "Inductors_THT:L_Radial_D6.0mm_P4.00mm" H 5800 2050 60  0001 C CNN
F 3 "" H 5800 2050 60  0001 C CNN
	1    5800 2050
	1    0    0    -1  
$EndComp
Wire Wire Line
	6200 2050 6100 2050
Connection ~ 5350 2050
$Comp
L power:GND #PWR099
U 1 1 59654AF7
P 5150 2350
F 0 "#PWR099" H 5150 2100 50  0001 C CNN
F 1 "GND" H 5150 2200 50  0000 C CNN
F 2 "" H 5150 2350 50  0001 C CNN
F 3 "" H 5150 2350 50  0001 C CNN
	1    5150 2350
	0    -1   -1   0   
$EndComp
Wire Wire Line
	5150 2350 5050 2350
Wire Wire Line
	3700 2900 3650 2900
$Comp
L linear:LM358 U4
U 2 1 59676F4A
P 3400 4600
F 0 "U4" H 3400 4800 50  0000 L CNN
F 1 "LM358" H 3400 4400 50  0000 L CNN
F 2 "Housings_DIP:DIP-8_W7.62mm" H 3400 4600 50  0001 C CNN
F 3 "" H 3400 4600 50  0001 C CNN
	2    3400 4600
	1    0    0    -1  
$EndComp
$Comp
L linear:LM358 U8
U 1 1 59677017
P 6750 4950
F 0 "U8" H 6750 5150 50  0000 L CNN
F 1 "LM358" H 6750 4750 50  0000 L CNN
F 2 "Housings_DIP:DIP-8_W7.62mm" H 6750 4950 50  0001 C CNN
F 3 "" H 6750 4950 50  0001 C CNN
	1    6750 4950
	1    0    0    -1  
$EndComp
Wire Wire Line
	7500 1150 7500 950 
Wire Wire Line
	7300 1150 7300 650 
Wire Wire Line
	7500 1350 7500 2600
$Comp
L CMCentralSensorSystem_ExtensionBoard-rescue:CONN_01X03-RESCUE-CMCentralSensorSystem-RESCUE-CMCentralSensorSystem_ExtensionBoard J2
U 1 1 597B641C
P 10850 850
F 0 "J2" H 10850 1050 50  0000 C CNN
F 1 "CONN_01X03" V 10950 850 50  0000 C CNN
F 2 "Pin_Headers:Pin_Header_Straight_1x03_Pitch2.54mm" H 10850 850 50  0001 C CNN
F 3 "" H 10850 850 50  0001 C CNN
	1    10850 850 
	0    -1   -1   0   
$EndComp
$Comp
L power:GND #PWR0100
U 1 1 597B67A2
P 10950 1050
F 0 "#PWR0100" H 10950 800 50  0001 C CNN
F 1 "GND" H 10950 900 50  0000 C CNN
F 2 "" H 10950 1050 50  0001 C CNN
F 3 "" H 10950 1050 50  0001 C CNN
	1    10950 1050
	1    0    0    -1  
$EndComp
$Comp
L power:+5V #PWR0101
U 1 1 597B711B
P 10750 1050
F 0 "#PWR0101" H 10750 900 50  0001 C CNN
F 1 "+5V" H 10750 1190 50  0000 C CNN
F 2 "" H 10750 1050 50  0001 C CNN
F 3 "" H 10750 1050 50  0001 C CNN
	1    10750 1050
	-1   0    0    1   
$EndComp
Wire Wire Line
	10850 1750 10850 1050
$Comp
L device:CP C1
U 1 1 59DD2239
P 8150 950
F 0 "C1" H 8175 1050 50  0000 L CNN
F 1 "10µ" V 8000 900 50  0000 L CNN
F 2 "Capacitors_THT:CP_Radial_D5.0mm_P2.50mm" H 8188 800 50  0001 C CNN
F 3 "" H 8150 950 50  0001 C CNN
	1    8150 950 
	1    0    0    -1  
$EndComp
Wire Wire Line
	9850 4500 10400 4500
Wire Wire Line
	9850 4400 10250 4400
Text GLabel 10400 4500 2    60   Input ~ 0
ML8511_3.3V_E
$Comp
L power:+3.3V #PWR01
U 1 1 5A446870
P 10250 4400
F 0 "#PWR01" H 10250 4250 50  0001 C CNN
F 1 "+3.3V" H 10250 4540 50  0000 C CNN
F 2 "" H 10250 4400 50  0001 C CNN
F 3 "" H 10250 4400 50  0001 C CNN
	1    10250 4400
	0    1    1    0   
$EndComp
$EndSCHEMATC
