EESchema Schematic File Version 4
LIBS:CMCentralSensorSystem-cache
EELAYER 29 0
EELAYER END
$Descr A3 16535 11693
encoding utf-8
Sheet 1 1
Title "CM Central Sensor System"
Date "2017-02-19"
Rev "A"
Comp ""
Comment1 ""
Comment2 ""
Comment3 ""
Comment4 ""
$EndDescr
$Comp
L power:+5V #PWR01
U 1 1 58A98EB5
P 6600 2050
F 0 "#PWR01" H 6600 1900 50  0001 C CNN
F 1 "+5V" H 6600 2190 50  0000 C CNN
F 2 "" H 6600 2050 50  0000 C CNN
F 3 "" H 6600 2050 50  0000 C CNN
	1    6600 2050
	1    0    0    -1  
$EndComp
$Comp
L CMCentralSensorSystem-rescue:Crystal-device Y1
U 1 1 58A9B427
P 5550 3300
F 0 "Y1" H 5550 3450 50  0000 C CNN
F 1 "Crystal" H 5550 3150 50  0000 C CNN
F 2 "w_crystal:crystal_hc-49s" H 5550 3300 50  0001 C CNN
F 3 "" H 5550 3300 50  0000 C CNN
	1    5550 3300
	0    -1   -1   0   
$EndComp
$Comp
L power:+5V #PWR02
U 1 1 58B09EDA
P 5500 2550
F 0 "#PWR02" H 5500 2400 50  0001 C CNN
F 1 "+5V" H 5500 2690 50  0000 C CNN
F 2 "" H 5500 2550 50  0000 C CNN
F 3 "" H 5500 2550 50  0000 C CNN
	1    5500 2550
	0    -1   -1   0   
$EndComp
$Comp
L CMCentralSensorSystem-rescue:Conn_01x02-conn 5V1
U 1 1 58FE4A41
P 14900 7050
F 0 "5V1" H 14900 7200 50  0000 C CNN
F 1 "CONN_01X02" V 15000 7050 50  0000 C CNN
F 2 "Pin_Headers:Pin_Header_Angled_1x02_Pitch2.54mm" H 14900 7050 50  0001 C CNN
F 3 "" H 14900 7050 50  0001 C CNN
	1    14900 7050
	-1   0    0    1   
$EndComp
$Comp
L power:+5V #PWR03
U 1 1 58FE4C7D
P 15400 6950
F 0 "#PWR03" H 15400 6800 50  0001 C CNN
F 1 "+5V" H 15400 7090 50  0000 C CNN
F 2 "" H 15400 6950 50  0000 C CNN
F 3 "" H 15400 6950 50  0000 C CNN
	1    15400 6950
	0    1    1    0   
$EndComp
Text GLabel 3550 9700 2    60   Input ~ 0
DOGXL_CS_3.3V
Text GLabel 8800 4600 2    60   Input ~ 0
SDA_5V
Text GLabel 8800 4500 2    60   Input ~ 0
SCL_5V
Text GLabel 8800 4300 2    60   Input ~ 0
SCK_5V
Text GLabel 8800 4200 2    60   Input ~ 0
MISO_5V
Text GLabel 8800 4100 2    60   Input ~ 0
MOSI_5V
Text GLabel 8800 5400 2    60   Input ~ 0
TXD
Text GLabel 8800 5500 2    60   Input ~ 0
RXD
$Comp
L CMCentralSensorSystem-rescue:Conn_01x02-conn 3.3V1
U 1 1 590175D6
P 14900 6550
F 0 "3.3V1" H 14900 6700 50  0000 C CNN
F 1 "CONN_01X02" V 15000 6550 50  0000 C CNN
F 2 "Pin_Headers:Pin_Header_Angled_1x02_Pitch2.54mm" H 14900 6550 50  0001 C CNN
F 3 "" H 14900 6550 50  0001 C CNN
	1    14900 6550
	-1   0    0    1   
$EndComp
Text GLabel 15150 9300 2    60   Input ~ 0
Battery_1307
Text GLabel 12550 7100 0    60   Input ~ 0
SCL_5V
Text GLabel 12550 7300 0    60   Input ~ 0
SDA_5V
$Comp
L power:+5V #PWR04
U 1 1 590191A0
P 13250 6550
F 0 "#PWR04" H 13250 6400 50  0001 C CNN
F 1 "+5V" H 13250 6690 50  0000 C CNN
F 2 "" H 13250 6550 50  0000 C CNN
F 3 "" H 13250 6550 50  0000 C CNN
	1    13250 6550
	1    0    0    -1  
$EndComp
$Comp
L CMCentralSensorSystem-rescue:Crystal-device Y2
U 1 1 590191D3
P 12400 7700
F 0 "Y2" H 12400 7850 50  0000 C CNN
F 1 "32768khz" H 12400 7550 50  0000 C CNN
F 2 "Crystals:Crystal_AT310_d3.0mm_l10.0mm_Vertical" H 12400 7700 50  0001 C CNN
F 3 "" H 12400 7700 50  0001 C CNN
	1    12400 7700
	0    -1   -1   0   
$EndComp
$Comp
L power:+5V #PWR05
U 1 1 5901BC89
P 6900 2100
F 0 "#PWR05" H 6900 1950 50  0001 C CNN
F 1 "+5V" H 6900 2240 50  0000 C CNN
F 2 "" H 6900 2100 50  0000 C CNN
F 3 "" H 6900 2100 50  0000 C CNN
	1    6900 2100
	1    0    0    -1  
$EndComp
$Comp
L cmos4000:4050 U1
U 2 1 5904D610
P 2000 1350
F 0 "U1" H 2195 1465 50  0000 C CNN
F 1 "4050" H 2190 1225 50  0000 C CNN
F 2 "74xx-eu:74xx-eu-DIL16" H 2000 1350 60  0001 C CNN
F 3 "" H 2000 1350 60  0001 C CNN
	2    2000 1350
	1    0    0    -1  
$EndComp
$Comp
L cmos4000:4050 U1
U 1 1 5904D92D
P 2000 850
F 0 "U1" H 2195 965 50  0000 C CNN
F 1 "4050" H 2190 725 50  0000 C CNN
F 2 "74xx-eu:74xx-eu-DIL16" H 2000 850 60  0001 C CNN
F 3 "" H 2000 850 60  0001 C CNN
	1    2000 850 
	1    0    0    -1  
$EndComp
$Comp
L cmos4000:4050 U1
U 3 1 5904D9C0
P 2000 1800
F 0 "U1" H 2195 1915 50  0000 C CNN
F 1 "4050" H 2190 1675 50  0000 C CNN
F 2 "74xx-eu:74xx-eu-DIL16" H 2000 1800 60  0001 C CNN
F 3 "" H 2000 1800 60  0001 C CNN
	3    2000 1800
	1    0    0    -1  
$EndComp
$Comp
L cmos4000:4050 U1
U 4 1 5904DAA7
P 2000 2300
F 0 "U1" H 2195 2415 50  0000 C CNN
F 1 "4050" H 2190 2175 50  0000 C CNN
F 2 "74xx-eu:74xx-eu-DIL16" H 2000 2300 60  0001 C CNN
F 3 "" H 2000 2300 60  0001 C CNN
	4    2000 2300
	1    0    0    -1  
$EndComp
$Comp
L cmos4000:4050 U1
U 5 1 5904DB0C
P 2000 2750
F 0 "U1" H 2195 2865 50  0000 C CNN
F 1 "4050" H 2190 2625 50  0000 C CNN
F 2 "74xx-eu:74xx-eu-DIL16" H 2000 2750 60  0001 C CNN
F 3 "" H 2000 2750 60  0001 C CNN
	5    2000 2750
	1    0    0    -1  
$EndComp
$Comp
L cmos4000:4050 U1
U 6 1 5904DB73
P 2000 3200
F 0 "U1" H 2195 3315 50  0000 C CNN
F 1 "4050" H 2190 3075 50  0000 C CNN
F 2 "74xx-eu:74xx-eu-DIL16" H 2000 3200 60  0001 C CNN
F 3 "" H 2000 3200 60  0001 C CNN
	6    2000 3200
	1    0    0    -1  
$EndComp
$Comp
L NXP_By_element14_Batch_1:PCA9515ADP_118 U3
U 1 1 59056A75
P 14050 1350
F 0 "U3" H 13854 1964 45  0000 L BNN
F 1 "PCA9515ADP_118" H 13889 489 45  0000 L BNN
F 2 "dp_devices:dp_devices-SO-8" H 14050 1350 60  0001 C CNN
F 3 "" H 14050 1350 60  0001 C CNN
	1    14050 1350
	1    0    0    -1  
$EndComp
Text GLabel 15050 1750 2    60   Input ~ 0
SDA_3.3V
Text GLabel 12750 1350 0    60   Input ~ 0
SCL_3.3V
Text GLabel 12750 1250 0    60   Input ~ 0
SCL_5V
Text GLabel 15050 1850 2    60   Input ~ 0
SDA_5V
$Comp
L power:+5V #PWR06
U 1 1 5905D893
P 14950 2200
F 0 "#PWR06" H 14950 2050 50  0001 C CNN
F 1 "+5V" H 14950 2340 50  0000 C CNN
F 2 "" H 14950 2200 50  0000 C CNN
F 3 "" H 14950 2200 50  0000 C CNN
	1    14950 2200
	-1   0    0    1   
$EndComp
$Comp
L power:+5V #PWR07
U 1 1 5905E543
P 12900 900
F 0 "#PWR07" H 12900 750 50  0001 C CNN
F 1 "+5V" H 12900 1040 50  0000 C CNN
F 2 "" H 12900 900 50  0000 C CNN
F 3 "" H 12900 900 50  0000 C CNN
	1    12900 900 
	1    0    0    -1  
$EndComp
$Comp
L 74xx-eu:74HCT126D IC2
U 1 1 59067BEC
P 2000 4500
F 0 "IC2" H 2100 4625 45  0000 L BNN
F 1 "74HCT126D" H 2100 4300 45  0000 L BNN
F 2 "74xx-eu:74xx-eu-DIL14" H 2000 4500 60  0001 C CNN
F 3 "" H 2000 4500 60  0001 C CNN
	1    2000 4500
	1    0    0    -1  
$EndComp
$Comp
L 74xx-eu:74HCT126D IC2
U 2 1 59067E84
P 2000 5050
F 0 "IC2" H 2100 5175 45  0000 L BNN
F 1 "74HCT126D" H 2100 4850 45  0000 L BNN
F 2 "74xx-eu:74xx-eu-DIL14" H 2000 5050 60  0001 C CNN
F 3 "" H 2000 5050 60  0001 C CNN
	2    2000 5050
	1    0    0    -1  
$EndComp
$Comp
L 74xx-eu:74HCT126D IC2
U 3 1 59067F0F
P 2000 5600
F 0 "IC2" H 2100 5725 45  0000 L BNN
F 1 "74HCT126D" H 2100 5400 45  0000 L BNN
F 2 "74xx-eu:74xx-eu-DIL14" H 2000 5600 60  0001 C CNN
F 3 "" H 2000 5600 60  0001 C CNN
	3    2000 5600
	1    0    0    -1  
$EndComp
$Comp
L 74xx-eu:74HCT126D IC2
U 4 1 59068D70
P 2000 6200
F 0 "IC2" H 2100 6325 45  0000 L BNN
F 1 "74HCT126D" H 2100 6000 45  0000 L BNN
F 2 "74xx-eu:74xx-eu-DIL14" H 2000 6200 60  0001 C CNN
F 3 "" H 2000 6200 60  0001 C CNN
	4    2000 6200
	1    0    0    -1  
$EndComp
$Comp
L 74xx-eu:74HCT126D IC2
U 5 1 59069307
P 2000 3700
F 0 "IC2" H 2100 3825 45  0000 L BNN
F 1 "74HCT126D" H 2100 3500 45  0000 L BNN
F 2 "74xx-eu:74xx-eu-DIL14" H 2000 3700 60  0001 C CNN
F 3 "" H 2000 3700 60  0001 C CNN
	5    2000 3700
	0    1    1    0   
$EndComp
Text GLabel 12150 9350 0    60   Input ~ 0
MISO_5V
Text GLabel 12150 9450 0    60   Input ~ 0
SCK_5V
Text GLabel 12850 9350 2    60   Input ~ 0
MOSI_5V
$Comp
L power:+5V #PWR08
U 1 1 5906F08F
P 12850 9450
F 0 "#PWR08" H 12850 9300 50  0001 C CNN
F 1 "+5V" H 12850 9590 50  0000 C CNN
F 2 "" H 12850 9450 50  0000 C CNN
F 3 "" H 12850 9450 50  0000 C CNN
	1    12850 9450
	0    1    1    0   
$EndComp
Text GLabel 12850 9550 2    60   Input ~ 0
RESET
Text GLabel 2400 4500 2    60   Input ~ 0
MISO_5V
Text GLabel 1600 4500 0    60   Input ~ 0
MISO_3.3V
Text GLabel 1350 850  0    60   Input ~ 0
MOSI_5V
Text GLabel 1350 1350 0    60   Input ~ 0
SCK_5V
Text GLabel 1350 1800 0    60   Input ~ 0
RFM12_CS_5V
Text GLabel 1350 2300 0    60   Input ~ 0
SDCard_CS_5V
Text GLabel 1350 2750 0    60   Input ~ 0
DOGXL_CS_5V
Text GLabel 8800 5600 2    60   Input ~ 0
RFM12_INT_5V
$Comp
L power:PWR_FLAG #FLG09
U 1 1 59099388
P 2400 2550
F 0 "#FLG09" H 2400 2625 50  0001 C CNN
F 1 "PWR_FLAG" H 2400 2700 50  0000 C CNN
F 2 "" H 2400 2550 50  0001 C CNN
F 3 "" H 2400 2550 50  0001 C CNN
	1    2400 2550
	0    1    1    0   
$EndComp
$Comp
L power:PWR_FLAG #FLG010
U 1 1 590993EE
P 2350 2950
F 0 "#FLG010" H 2350 3025 50  0001 C CNN
F 1 "PWR_FLAG" H 2350 3100 50  0000 C CNN
F 2 "" H 2350 2950 50  0001 C CNN
F 3 "" H 2350 2950 50  0001 C CNN
	1    2350 2950
	0    1    1    0   
$EndComp
Text GLabel 2650 850  2    60   Input ~ 0
MOSI_3.3V
Text GLabel 2650 1350 2    60   Input ~ 0
SCK_3.3V
Text GLabel 2650 1800 2    60   Input ~ 0
RFM12_CS_3.3V
Text GLabel 2650 2300 2    60   Input ~ 0
SDCard_CS_3.3V
Text GLabel 2650 2750 2    60   Input ~ 0
DOGXL_CS_3.3V
$Comp
L power:VCC #PWR011
U 1 1 590A8402
P 9150 8000
F 0 "#PWR011" H 9150 7850 50  0001 C CNN
F 1 "VCC" H 9150 8150 50  0000 C CNN
F 2 "" H 9150 8000 50  0001 C CNN
F 3 "" H 9150 8000 50  0001 C CNN
	1    9150 8000
	1    0    0    -1  
$EndComp
$Comp
L power:VCC #PWR012
U 1 1 590A849E
P 10800 9550
F 0 "#PWR012" H 10800 9400 50  0001 C CNN
F 1 "VCC" H 10800 9700 50  0000 C CNN
F 2 "" H 10800 9550 50  0001 C CNN
F 3 "" H 10800 9550 50  0001 C CNN
	1    10800 9550
	0    1    1    0   
$EndComp
$Comp
L power:VCC #PWR013
U 1 1 590A8533
P 10800 9750
F 0 "#PWR013" H 10800 9600 50  0001 C CNN
F 1 "VCC" H 10800 9900 50  0000 C CNN
F 2 "" H 10800 9750 50  0001 C CNN
F 3 "" H 10800 9750 50  0001 C CNN
	1    10800 9750
	0    1    1    0   
$EndComp
Text GLabel 10200 8450 2    60   Input ~ 0
TXD
Text GLabel 10200 8550 2    60   Input ~ 0
RXD
$Comp
L power:+5V #PWR014
U 1 1 590AEC03
P 2500 3700
F 0 "#PWR014" H 2500 3550 50  0001 C CNN
F 1 "+5V" H 2500 3840 50  0000 C CNN
F 2 "" H 2500 3700 50  0000 C CNN
F 3 "" H 2500 3700 50  0000 C CNN
	1    2500 3700
	0    1    1    0   
$EndComp
Text GLabel 12050 4850 0    60   Input ~ 0
MOSI_3.3V
Text GLabel 12050 4650 0    60   Input ~ 0
SCK_3.3V
Text GLabel 12050 4750 0    60   Input ~ 0
MISO_3.3V
Text GLabel 14500 4550 2    60   Input ~ 0
RFM12_INT_3.3V
Text GLabel 1450 3200 0    60   Input ~ 0
RFM12_RESET_5V
Text GLabel 2550 3200 2    60   Input ~ 0
RFM12_RESET_3.3V
Text GLabel 14450 4750 2    60   Input ~ 0
RFM12_RESET_3.3V
Text GLabel 12050 4450 0    60   Input ~ 0
RFM12_CS_3.3V
$Comp
L CMCentralSensorSystem-rescue:Conn_01x10-conn I2C/SPI1
U 1 1 59390792
P 1100 10350
F 0 "I2C/SPI1" H 1100 10900 50  0000 C CNN
F 1 "CONN_01X10" V 1200 10350 50  0000 C CNN
F 2 "Pin_Headers:Pin_Header_Angled_1x10_Pitch2.54mm" H 1100 10350 50  0001 C CNN
F 3 "" H 1100 10350 50  0001 C CNN
	1    1100 10350
	-1   0    0    1   
$EndComp
$Comp
L CMCentralSensorSystem-rescue:Conn_01x10-conn ExtensionBoard1
U 1 1 59390D9B
P 1100 9150
F 0 "ExtensionBoard1" H 1100 9700 50  0000 C CNN
F 1 "CONN_01X10" V 1200 9150 50  0000 C CNN
F 2 "Pin_Headers:Pin_Header_Angled_1x10_Pitch2.54mm" H 1100 9150 50  0001 C CNN
F 3 "" H 1100 9150 50  0001 C CNN
	1    1100 9150
	-1   0    0    1   
$EndComp
Text GLabel 1950 9150 2    60   Input ~ 0
LDR_5V
Text GLabel 1950 9050 2    60   Input ~ 0
DHT11_5V
Text GLabel 1950 8950 2    60   Input ~ 0
PIR_5V
Text GLabel 1950 8750 2    60   Input ~ 0
1WIRE_3.3V
Text GLabel 1950 8650 2    60   Input ~ 0
1
Text GLabel 1950 10750 2    60   Input ~ 0
SCL_3.3V
Text GLabel 1950 10650 2    60   Input ~ 0
SDA_3.3V
Text GLabel 1950 10550 2    60   Input ~ 0
SCL_5V
Text GLabel 1950 10450 2    60   Input ~ 0
SDA_5V
Text GLabel 1950 10350 2    60   Input ~ 0
MOSI_5V
Text GLabel 1950 10250 2    60   Input ~ 0
MISO_5V
Text GLabel 1950 10150 2    60   Input ~ 0
SCK_5V
Text GLabel 1950 10050 2    60   Input ~ 0
MOSI_3.3V
Text GLabel 1950 9950 2    60   Input ~ 0
MISO_3.3V
Text GLabel 1950 9850 2    60   Input ~ 0
SCK_3.3V
Text GLabel 1950 9250 2    60   Input ~ 0
ML8511_3.3V
Text GLabel 1950 9350 2    60   Input ~ 0
AudioSensor_5V
Text GLabel 1950 9550 2    60   Input ~ 0
10
$Comp
L CMCentralSensorSystem-rescue:Conn_01x03-conn 3.3V/5V2
U 1 1 594DD546
P 1000 8050
F 0 "3.3V/5V2" H 1000 8250 50  0000 C CNN
F 1 "CONN_01X03" V 1100 8050 50  0000 C CNN
F 2 "Pin_Headers:Pin_Header_Angled_1x03_Pitch2.54mm" H 1000 8050 50  0001 C CNN
F 3 "" H 1000 8050 50  0001 C CNN
	1    1000 8050
	-1   0    0    1   
$EndComp
$Comp
L power:+5V #PWR015
U 1 1 594E2202
P 2150 8350
F 0 "#PWR015" H 2150 8200 50  0001 C CNN
F 1 "+5V" H 2150 8490 50  0000 C CNN
F 2 "" H 2150 8350 50  0000 C CNN
F 3 "" H 2150 8350 50  0000 C CNN
	1    2150 8350
	0    1    1    0   
$EndComp
Wire Wire Line
	6600 6400 6600 6550
Wire Wire Line
	7800 2700 8800 2700
Wire Wire Line
	7800 2800 8800 2800
Wire Wire Line
	7800 2900 8800 2900
Wire Wire Line
	7800 3000 8800 3000
Wire Wire Line
	7800 3100 8800 3100
Wire Wire Line
	7800 3200 8800 3200
Wire Wire Line
	7800 3300 8800 3300
Wire Wire Line
	7800 3400 8800 3400
Wire Wire Line
	5400 3100 5550 3100
Wire Wire Line
	5550 3100 5550 3150
Wire Wire Line
	5400 3500 5550 3500
Wire Wire Line
	5550 3500 5550 3450
Wire Wire Line
	5100 3100 5100 3300
Connection ~ 5100 3300
Connection ~ 5550 3100
Connection ~ 5550 3500
Wire Wire Line
	7800 3600 8800 3600
Wire Wire Line
	7800 3700 8800 3700
Wire Wire Line
	7800 3800 8800 3800
Wire Wire Line
	7800 3900 8800 3900
Wire Wire Line
	7800 4000 8800 4000
Wire Wire Line
	7800 4100 8800 4100
Wire Wire Line
	7800 4200 8800 4200
Wire Wire Line
	7800 4300 8800 4300
Wire Wire Line
	7800 4500 8800 4500
Wire Wire Line
	7800 4600 8800 4600
Wire Wire Line
	7800 4700 8800 4700
Wire Wire Line
	7800 4800 8800 4800
Wire Wire Line
	7800 4900 8800 4900
Wire Wire Line
	7800 5000 8800 5000
Wire Wire Line
	7800 5100 8800 5100
Wire Wire Line
	7800 5200 8800 5200
Wire Wire Line
	7800 5400 8800 5400
Wire Wire Line
	7800 5500 8800 5500
Wire Wire Line
	7800 5600 8800 5600
Wire Wire Line
	7800 5700 8800 5700
Wire Wire Line
	7800 5800 8800 5800
Wire Wire Line
	7800 5900 8800 5900
Wire Wire Line
	7800 6000 8800 6000
Wire Wire Line
	7800 6100 8800 6100
Wire Wire Line
	6900 2100 6900 2200
Wire Wire Line
	3750 9900 3750 10100
Wire Wire Line
	3750 10100 3950 10100
Connection ~ 3950 10100
Wire Wire Line
	3550 9800 3950 9800
Connection ~ 3950 9800
Wire Wire Line
	12750 1250 12900 1250
Connection ~ 12900 1250
Wire Wire Line
	12750 1350 12900 1350
Connection ~ 12900 1350
Wire Wire Line
	14850 1750 14950 1750
Connection ~ 14950 1750
Wire Wire Line
	14850 1850 14950 1850
Connection ~ 14950 1850
Wire Notes Line
	12100 600  12100 2400
Wire Notes Line
	12100 2400 15650 2400
Wire Notes Line
	15650 2400 15650 600 
Wire Notes Line
	15650 600  12100 600 
Wire Notes Line
	3050 8550 3050 10400
Wire Notes Line
	3050 10400 4550 10400
Wire Notes Line
	4550 10400 4550 8550
Wire Notes Line
	4550 8550 3050 8550
Wire Wire Line
	13100 5750 13200 5750
Wire Wire Line
	13200 5850 13200 5750
Connection ~ 13200 5750
Wire Notes Line
	14650 6250 14650 7350
Wire Notes Line
	14650 7350 15550 7350
Wire Notes Line
	15900 7350 15900 6250
Wire Notes Line
	15550 6250 14650 6250
Wire Notes Line
	12150 6300 12150 8200
Wire Notes Line
	12150 8200 14500 8200
Wire Notes Line
	14500 8200 14500 6300
Wire Notes Line
	14500 6300 12150 6300
Wire Wire Line
	12250 9350 12150 9350
Wire Wire Line
	12250 9450 12150 9450
Wire Wire Line
	12250 9550 12150 9550
Wire Wire Line
	12850 9350 12750 9350
Wire Wire Line
	12850 9450 12750 9450
Wire Notes Line
	11650 9750 13350 9750
Wire Notes Line
	13350 9750 13350 9200
Wire Notes Line
	13350 9200 11650 9200
Wire Notes Line
	11650 9200 11650 9750
Wire Notes Line
	13450 9750 15850 9750
Wire Notes Line
	15850 9750 15850 8850
Wire Notes Line
	15850 8850 13450 8850
Wire Notes Line
	13450 8850 13450 9750
Wire Wire Line
	1550 850  1350 850 
Wire Wire Line
	1550 1350 1350 1350
Wire Wire Line
	1550 1800 1350 1800
Wire Wire Line
	1550 2300 1350 2300
Wire Wire Line
	1550 2750 1350 2750
Wire Wire Line
	2650 850  2450 850 
Wire Wire Line
	2650 1350 2450 1350
Wire Wire Line
	2650 1800 2450 1800
Wire Wire Line
	2650 2300 2450 2300
Wire Wire Line
	2450 2750 2650 2750
Wire Notes Line
	600  650  600  3400
Wire Notes Line
	600  3400 3500 3400
Wire Notes Line
	3500 3400 3500 650 
Wire Notes Line
	3500 650  600  650 
Wire Wire Line
	7350 8650 8150 8650
Wire Wire Line
	7200 8150 8950 8150
Wire Wire Line
	8150 10650 8850 10650
Connection ~ 9050 10650
Connection ~ 9150 10650
Wire Wire Line
	9000 10750 9000 10650
Connection ~ 9000 10650
Wire Wire Line
	7400 8950 8150 8950
Wire Wire Line
	8150 10250 8150 10650
Connection ~ 8850 10650
Wire Wire Line
	10800 9750 10750 9750
Wire Wire Line
	10800 9550 10750 9550
Wire Wire Line
	10450 9550 10350 9550
Wire Wire Line
	10450 9750 10350 9750
Wire Wire Line
	9950 9550 10050 9550
Wire Wire Line
	9950 9750 10050 9750
Wire Wire Line
	8150 8450 8100 8450
Wire Wire Line
	7800 8450 7750 8450
Wire Wire Line
	9950 8450 10200 8450
Wire Wire Line
	9950 8550 10200 8550
Wire Notes Line
	6900 7750 6900 11000
Wire Notes Line
	6900 11000 11050 11000
Wire Notes Line
	11050 11000 11050 7750
Wire Notes Line
	11050 7750 6900 7750
Wire Wire Line
	2500 3700 2300 3700
Wire Wire Line
	14100 4750 14350 4750
Connection ~ 14350 4750
Wire Wire Line
	12400 4850 12050 4850
Wire Wire Line
	12400 4650 12050 4650
Wire Wire Line
	12050 4750 12400 4750
Wire Wire Line
	12400 4450 12050 4450
Wire Wire Line
	12400 5050 12250 5050
Wire Wire Line
	14100 4550 14350 4550
Connection ~ 14350 4550
Wire Wire Line
	14350 4150 14350 4250
Connection ~ 13300 5750
Wire Wire Line
	14100 4150 14100 3950
Wire Wire Line
	14100 3950 15400 3950
Wire Wire Line
	15400 3950 15400 5750
Wire Wire Line
	12250 5050 12250 4150
Wire Wire Line
	12250 4150 12450 4150
Wire Wire Line
	1300 8650 1950 8650
Wire Wire Line
	1300 8750 1950 8750
Wire Wire Line
	1300 8850 1950 8850
Wire Wire Line
	1300 8950 1950 8950
Wire Wire Line
	1300 9050 1950 9050
Wire Wire Line
	1300 9150 1950 9150
Wire Wire Line
	1300 9250 1950 9250
Wire Wire Line
	1300 9350 1950 9350
Wire Wire Line
	1300 9450 1950 9450
Wire Wire Line
	1300 9550 1950 9550
Wire Wire Line
	1300 9850 1950 9850
Wire Wire Line
	1300 9950 1950 9950
Wire Wire Line
	1300 10050 1950 10050
Wire Wire Line
	1300 10150 1950 10150
Wire Wire Line
	1300 10250 1950 10250
Wire Wire Line
	1300 10350 1950 10350
Wire Wire Line
	1300 10450 1950 10450
Wire Wire Line
	1300 10550 1950 10550
Wire Wire Line
	1300 10650 1950 10650
Wire Wire Line
	1300 10750 1950 10750
Wire Wire Line
	1200 7950 1550 7950
Wire Wire Line
	1200 8050 1800 8050
Wire Wire Line
	1800 8050 1800 8100
Wire Wire Line
	1800 8350 2150 8350
Wire Wire Line
	1200 8150 1250 8150
Wire Wire Line
	1250 8150 1250 8200
Wire Wire Line
	1250 8350 1600 8350
Wire Notes Line
	800  8500 2400 8500
Wire Notes Line
	2400 8500 2400 7750
Wire Notes Line
	2400 7750 800  7750
Wire Notes Line
	800  7750 800  8500
Wire Notes Line
	800  8550 800  9700
Wire Notes Line
	800  9700 2900 9700
Wire Notes Line
	2900 9700 2900 8550
Wire Notes Line
	2900 8550 800  8550
Wire Notes Line
	800  9750 800  10900
Wire Notes Line
	800  10900 2500 10900
Wire Notes Line
	2500 10900 2500 9750
Wire Notes Line
	2500 9750 800  9750
Wire Wire Line
	2000 4200 2450 4200
Wire Wire Line
	2000 4750 2500 4750
Wire Wire Line
	2000 5300 2450 5300
Wire Wire Line
	2000 5900 2400 5900
Text GLabel 8800 3100 2    60   Input ~ 0
PIR_5V
Text GLabel 8800 3700 2    60   Input ~ 0
DHT11_5V
Text GLabel 8800 3200 2    60   Input ~ 0
LDR_5V
Text GLabel 8800 3400 2    60   Input ~ 0
AudioSensor_5V
Text GLabel 8800 3300 2    60   Input ~ 0
GAS_Sensor
Text GLabel 2400 5600 2    60   Input ~ 0
RFM12_RESET_5V
Text GLabel 2500 5050 2    60   Input ~ 0
RFM12_INT_5V
Wire Notes Line
	15500 6100 11250 6100
Wire Notes Line
	11250 6100 11250 3800
Wire Notes Line
	11250 3800 15500 3800
Wire Notes Line
	15500 3800 15500 6100
Text GLabel 1600 5050 0    60   Input ~ 0
RFM12_INT_3.3V
Text GLabel 3550 9400 2    60   Input ~ 0
MOSI_3.3V
Text GLabel 3550 9300 2    60   Input ~ 0
SCK_3.3V
Wire Wire Line
	3550 9900 3750 9900
Text GLabel 3550 9600 2    60   Input ~ 0
DOGXL_RESET_3.3V
Text GLabel 1600 5600 0    60   Input ~ 0
RFM12_RESET_3.3V
Text GLabel 8800 3000 2    60   Input ~ 0
ML8511_3.3V
Text GLabel 8800 4800 2    60   Input ~ 0
RFM12_RESET_5V
Text GLabel 8800 5100 2    60   Input ~ 0
SDCard_CS_5V
Text GLabel 8800 5000 2    60   Input ~ 0
RFM12_CS_5V
Text GLabel 8800 4900 2    60   Input ~ 0
DOGXL_CS_5V
Wire Notes Line
	600  3500 600  6500
Wire Notes Line
	600  6500 3400 6500
Wire Notes Line
	3400 6500 3400 3500
Wire Notes Line
	3400 3500 600  3500
Text GLabel 8800 2900 2    60   Input ~ 0
AIRQUALITY_Sensor
Text GLabel 1950 9450 2    60   Input ~ 0
AIRQUALITY_Sensor
Text GLabel 1950 8850 2    60   Input ~ 0
GAS_Sensor
Wire Wire Line
	5800 2450 5800 2550
Connection ~ 5800 2550
Text GLabel 3550 9500 2    60   Input ~ 0
DOGXL_CD_3.3V
$Comp
L power:GND #PWR016
U 1 1 5960009E
P 6600 6550
F 0 "#PWR016" H 6600 6300 50  0001 C CNN
F 1 "GND" H 6600 6400 50  0000 C CNN
F 2 "" H 6600 6550 50  0001 C CNN
F 3 "" H 6600 6550 50  0001 C CNN
	1    6600 6550
	1    0    0    -1  
$EndComp
$Comp
L ftdichip-4:FT232RL U2
U 1 1 59601D52
P 9050 9350
F 0 "U2" H 8450 10400 45  0000 L BNN
F 1 "FT232RL" H 9050 9350 45  0001 L BNN
F 2 "ftdichip-4:ftdichip-4-SSOP28DB" H 9050 9350 60  0001 C CNN
F 3 "" H 9050 9350 60  0001 C CNN
	1    9050 9350
	1    0    0    -1  
$EndComp
$Comp
L power:GND #PWR017
U 1 1 59604526
P 13250 8050
F 0 "#PWR017" H 13250 7800 50  0001 C CNN
F 1 "GND" H 13250 7900 50  0000 C CNN
F 2 "" H 13250 8050 50  0001 C CNN
F 3 "" H 13250 8050 50  0001 C CNN
	1    13250 8050
	1    0    0    -1  
$EndComp
$Comp
L power:GND #PWR018
U 1 1 596049BB
P 13200 5850
F 0 "#PWR018" H 13200 5600 50  0001 C CNN
F 1 "GND" H 13200 5700 50  0000 C CNN
F 2 "" H 13200 5850 50  0001 C CNN
F 3 "" H 13200 5850 50  0001 C CNN
	1    13200 5850
	1    0    0    -1  
$EndComp
$Comp
L CMCentralSensorSystem-rescue:C-device C10
U 1 1 59604D18
P 13750 5750
F 0 "C10" H 13775 5850 50  0000 L CNN
F 1 "100n" H 13775 5650 50  0000 L CNN
F 2 "Capacitors_THT:C_Disc_D3.8mm_W2.6mm_P2.50mm" H 13788 5600 50  0001 C CNN
F 3 "" H 13750 5750 50  0001 C CNN
	1    13750 5750
	0    1    1    0   
$EndComp
$Comp
L power:GND #PWR019
U 1 1 5960587D
P 15300 6550
F 0 "#PWR019" H 15300 6300 50  0001 C CNN
F 1 "GND" H 15300 6400 50  0000 C CNN
F 2 "" H 15300 6550 50  0001 C CNN
F 3 "" H 15300 6550 50  0001 C CNN
	1    15300 6550
	0    -1   -1   0   
$EndComp
$Comp
L power:+3.3V #PWR020
U 1 1 59605FC4
P 15400 6450
F 0 "#PWR020" H 15400 6300 50  0001 C CNN
F 1 "+3.3V" H 15400 6590 50  0000 C CNN
F 2 "" H 15400 6450 50  0001 C CNN
F 3 "" H 15400 6450 50  0001 C CNN
	1    15400 6450
	0    1    1    0   
$EndComp
$Comp
L power:GND #PWR021
U 1 1 596064C7
P 15300 7050
F 0 "#PWR021" H 15300 6800 50  0001 C CNN
F 1 "GND" H 15300 6900 50  0000 C CNN
F 2 "" H 15300 7050 50  0001 C CNN
F 3 "" H 15300 7050 50  0001 C CNN
	1    15300 7050
	0    -1   -1   0   
$EndComp
$Comp
L CMCentralSensorSystem-rescue:CP-device C3
U 1 1 59607554
P 3950 9950
F 0 "C3" H 3975 10050 50  0000 L CNN
F 1 "100µ" H 3975 9850 50  0000 L CNN
F 2 "Capacitors_THT:CP_Radial_D5.0mm_P2.50mm" H 3988 9800 50  0001 C CNN
F 3 "" H 3950 9950 50  0001 C CNN
	1    3950 9950
	-1   0    0    1   
$EndComp
$Comp
L CMCentralSensorSystem-rescue:R-device R12
U 1 1 5960A207
P 14950 2000
F 0 "R12" V 15030 2000 50  0000 C CNN
F 1 "4,7K" V 14950 2000 50  0000 C CNN
F 2 "Resistors_THT:R_Axial_DIN0207_L6.3mm_D2.5mm_P7.62mm_Horizontal" V 14880 2000 50  0001 C CNN
F 3 "" H 14950 2000 50  0001 C CNN
	1    14950 2000
	1    0    0    -1  
$EndComp
$Comp
L CMCentralSensorSystem-rescue:R-device R11
U 1 1 5960A399
P 14950 1600
F 0 "R11" V 15030 1600 50  0000 C CNN
F 1 "4,7K" V 14950 1600 50  0000 C CNN
F 2 "Resistors_THT:R_Axial_DIN0207_L6.3mm_D2.5mm_P7.62mm_Horizontal" V 14880 1600 50  0001 C CNN
F 3 "" H 14950 1600 50  0001 C CNN
	1    14950 1600
	1    0    0    -1  
$EndComp
$Comp
L CMCentralSensorSystem-rescue:R-device R7
U 1 1 5960A489
P 12900 1100
F 0 "R7" V 12980 1100 50  0000 C CNN
F 1 "4,7K" V 12900 1100 50  0000 C CNN
F 2 "Resistors_THT:R_Axial_DIN0207_L6.3mm_D2.5mm_P7.62mm_Horizontal" V 12830 1100 50  0001 C CNN
F 3 "" H 12900 1100 50  0001 C CNN
	1    12900 1100
	1    0    0    -1  
$EndComp
$Comp
L CMCentralSensorSystem-rescue:R-device R8
U 1 1 5960A604
P 12900 1500
F 0 "R8" V 12980 1500 50  0000 C CNN
F 1 "4,7K" V 12900 1500 50  0000 C CNN
F 2 "Resistors_THT:R_Axial_DIN0207_L6.3mm_D2.5mm_P7.62mm_Horizontal" V 12830 1500 50  0001 C CNN
F 3 "" H 12900 1500 50  0001 C CNN
	1    12900 1500
	1    0    0    -1  
$EndComp
$Comp
L power:+3.3V #PWR022
U 1 1 5960AF81
P 14950 1400
F 0 "#PWR022" H 14950 1250 50  0001 C CNN
F 1 "+3.3V" H 14950 1540 50  0000 C CNN
F 2 "" H 14950 1400 50  0001 C CNN
F 3 "" H 14950 1400 50  0001 C CNN
	1    14950 1400
	1    0    0    -1  
$EndComp
$Comp
L power:+3.3V #PWR023
U 1 1 5960C13E
P 12900 1700
F 0 "#PWR023" H 12900 1550 50  0001 C CNN
F 1 "+3.3V" H 12900 1840 50  0000 C CNN
F 2 "" H 12900 1700 50  0001 C CNN
F 3 "" H 12900 1700 50  0001 C CNN
	1    12900 1700
	-1   0    0    1   
$EndComp
$Comp
L power:+3.3V #PWR024
U 1 1 5960C51E
P 13250 1550
F 0 "#PWR024" H 13250 1400 50  0001 C CNN
F 1 "+3.3V" H 13250 1690 50  0000 C CNN
F 2 "" H 13250 1550 50  0001 C CNN
F 3 "" H 13250 1550 50  0001 C CNN
	1    13250 1550
	0    -1   -1   0   
$EndComp
$Comp
L power:GND #PWR025
U 1 1 5960CBDE
P 13250 1850
F 0 "#PWR025" H 13250 1600 50  0001 C CNN
F 1 "GND" H 13250 1700 50  0000 C CNN
F 2 "" H 13250 1850 50  0001 C CNN
F 3 "" H 13250 1850 50  0001 C CNN
	1    13250 1850
	0    1    1    0   
$EndComp
$Comp
L power:+3.3V #PWR026
U 1 1 5960D9E6
P 13250 1050
F 0 "#PWR026" H 13250 900 50  0001 C CNN
F 1 "+3.3V" H 13250 1190 50  0000 C CNN
F 2 "" H 13250 1050 50  0001 C CNN
F 3 "" H 13250 1050 50  0001 C CNN
	1    13250 1050
	0    -1   -1   0   
$EndComp
$Comp
L CMCentralSensorSystem-rescue:C-device C6
U 1 1 5961369A
P 5650 3900
F 0 "C6" H 5675 4000 50  0000 L CNN
F 1 "100n" H 5675 3800 50  0000 L CNN
F 2 "Capacitors_THT:C_Disc_D3.8mm_W2.6mm_P2.50mm" H 5688 3750 50  0001 C CNN
F 3 "" H 5650 3900 50  0001 C CNN
	1    5650 3900
	0    1    1    0   
$EndComp
$Comp
L power:GND #PWR027
U 1 1 59613D80
P 5500 3900
F 0 "#PWR027" H 5500 3650 50  0001 C CNN
F 1 "GND" H 5500 3750 50  0000 C CNN
F 2 "" H 5500 3900 50  0001 C CNN
F 3 "" H 5500 3900 50  0001 C CNN
	1    5500 3900
	0    1    1    0   
$EndComp
$Comp
L power:GND #PWR028
U 1 1 59615113
P 5100 3300
F 0 "#PWR028" H 5100 3050 50  0001 C CNN
F 1 "GND" H 5100 3150 50  0000 C CNN
F 2 "" H 5100 3300 50  0001 C CNN
F 3 "" H 5100 3300 50  0001 C CNN
	1    5100 3300
	0    1    1    0   
$EndComp
$Comp
L CMCentralSensorSystem-rescue:C-device C5
U 1 1 596153AC
P 5250 3500
F 0 "C5" H 5275 3600 50  0000 L CNN
F 1 "22p" H 5275 3400 50  0000 L CNN
F 2 "Capacitors_THT:C_Disc_D3.0mm_W1.6mm_P2.50mm" H 5288 3350 50  0001 C CNN
F 3 "" H 5250 3500 50  0001 C CNN
	1    5250 3500
	0    1    1    0   
$EndComp
$Comp
L CMCentralSensorSystem-rescue:C-device C4
U 1 1 5961546F
P 5250 3100
F 0 "C4" H 5275 3200 50  0000 L CNN
F 1 "22p" H 5275 3000 50  0000 L CNN
F 2 "Capacitors_THT:C_Disc_D3.0mm_W1.6mm_P2.50mm" H 5288 2950 50  0001 C CNN
F 3 "" H 5250 3100 50  0001 C CNN
	1    5250 3100
	0    1    1    0   
$EndComp
$Comp
L CMCentralSensorSystem-rescue:C-device C8
U 1 1 5961818A
P 7050 2200
F 0 "C8" H 7075 2300 50  0000 L CNN
F 1 "100n" H 7075 2100 50  0000 L CNN
F 2 "Capacitors_THT:C_Disc_D3.8mm_W2.6mm_P2.50mm" H 7088 2050 50  0001 C CNN
F 3 "" H 7050 2200 50  0001 C CNN
	1    7050 2200
	0    1    1    0   
$EndComp
$Comp
L CMCentralSensorSystem-rescue:R-device R3
U 1 1 59618DB0
P 5650 2550
F 0 "R3" V 5730 2550 50  0000 C CNN
F 1 "10K" V 5650 2550 50  0000 C CNN
F 2 "Resistors_THT:R_Axial_DIN0207_L6.3mm_D2.5mm_P7.62mm_Horizontal" V 5580 2550 50  0001 C CNN
F 3 "" H 5650 2550 50  0001 C CNN
	1    5650 2550
	0    -1   -1   0   
$EndComp
$Comp
L power:GND #PWR029
U 1 1 5961973F
P 7200 2200
F 0 "#PWR029" H 7200 1950 50  0001 C CNN
F 1 "GND" H 7200 2050 50  0000 C CNN
F 2 "" H 7200 2200 50  0001 C CNN
F 3 "" H 7200 2200 50  0001 C CNN
	1    7200 2200
	0    -1   -1   0   
$EndComp
$Comp
L power:GND #PWR030
U 1 1 5961AC2F
P 5650 1950
F 0 "#PWR030" H 5650 1700 50  0001 C CNN
F 1 "GND" H 5650 1800 50  0000 C CNN
F 2 "" H 5650 1950 50  0001 C CNN
F 3 "" H 5650 1950 50  0001 C CNN
	1    5650 1950
	-1   0    0    1   
$EndComp
Wire Wire Line
	5650 2050 5650 1950
$Comp
L CMCentralSensorSystem-rescue:CP-device C7
U 1 1 5961C47B
P 6450 2200
F 0 "C7" H 6475 2300 50  0000 L CNN
F 1 "100µ" H 6475 2100 50  0000 L CNN
F 2 "Capacitors_THT:CP_Radial_D5.0mm_P2.50mm" H 6488 2050 50  0001 C CNN
F 3 "" H 6450 2200 50  0001 C CNN
	1    6450 2200
	0    1    1    0   
$EndComp
$Comp
L power:GND #PWR031
U 1 1 5961C575
P 6300 2200
F 0 "#PWR031" H 6300 1950 50  0001 C CNN
F 1 "GND" H 6300 2050 50  0000 C CNN
F 2 "" H 6300 2200 50  0001 C CNN
F 3 "" H 6300 2200 50  0001 C CNN
	1    6300 2200
	0    1    1    0   
$EndComp
Wire Wire Line
	1550 3200 1450 3200
Wire Wire Line
	2450 3200 2550 3200
$Comp
L power:GND #PWR032
U 1 1 596203BA
P 1500 3700
F 0 "#PWR032" H 1500 3450 50  0001 C CNN
F 1 "GND" H 1500 3550 50  0000 C CNN
F 2 "" H 1500 3700 50  0001 C CNN
F 3 "" H 1500 3700 50  0001 C CNN
	1    1500 3700
	0    1    1    0   
$EndComp
$Comp
L power:GND #PWR033
U 1 1 5962267E
P 2450 4200
F 0 "#PWR033" H 2450 3950 50  0001 C CNN
F 1 "GND" H 2450 4050 50  0000 C CNN
F 2 "" H 2450 4200 50  0001 C CNN
F 3 "" H 2450 4200 50  0001 C CNN
	1    2450 4200
	0    -1   -1   0   
$EndComp
$Comp
L power:GND #PWR034
U 1 1 59622722
P 2500 4750
F 0 "#PWR034" H 2500 4500 50  0001 C CNN
F 1 "GND" H 2500 4600 50  0000 C CNN
F 2 "" H 2500 4750 50  0001 C CNN
F 3 "" H 2500 4750 50  0001 C CNN
	1    2500 4750
	0    -1   -1   0   
$EndComp
$Comp
L power:GND #PWR035
U 1 1 596227C6
P 2450 5300
F 0 "#PWR035" H 2450 5050 50  0001 C CNN
F 1 "GND" H 2450 5150 50  0000 C CNN
F 2 "" H 2450 5300 50  0001 C CNN
F 3 "" H 2450 5300 50  0001 C CNN
	1    2450 5300
	0    -1   -1   0   
$EndComp
$Comp
L power:GND #PWR036
U 1 1 59622941
P 2400 5900
F 0 "#PWR036" H 2400 5650 50  0001 C CNN
F 1 "GND" H 2400 5750 50  0000 C CNN
F 2 "" H 2400 5900 50  0001 C CNN
F 3 "" H 2400 5900 50  0001 C CNN
	1    2400 5900
	0    -1   -1   0   
$EndComp
$Comp
L power:+3.3V #PWR037
U 1 1 59625368
P 14350 4150
F 0 "#PWR037" H 14350 4000 50  0001 C CNN
F 1 "+3.3V" H 14350 4290 50  0000 C CNN
F 2 "" H 14350 4150 50  0001 C CNN
F 3 "" H 14350 4150 50  0001 C CNN
	1    14350 4150
	1    0    0    -1  
$EndComp
$Comp
L CMCentralSensorSystem-rescue:R-device R9
U 1 1 5962540C
P 14350 4400
F 0 "R9" V 14430 4400 50  0000 C CNN
F 1 "10k" V 14350 4400 50  0000 C CNN
F 2 "Resistors_THT:R_Axial_DIN0207_L6.3mm_D2.5mm_P7.62mm_Horizontal" V 14280 4400 50  0001 C CNN
F 3 "" H 14350 4400 50  0001 C CNN
	1    14350 4400
	1    0    0    -1  
$EndComp
$Comp
L CMCentralSensorSystem-rescue:R-device R10
U 1 1 59625B7B
P 14350 4900
F 0 "R10" V 14430 4900 50  0000 C CNN
F 1 "10k" V 14350 4900 50  0000 C CNN
F 2 "Resistors_THT:R_Axial_DIN0207_L6.3mm_D2.5mm_P7.62mm_Horizontal" V 14280 4900 50  0001 C CNN
F 3 "" H 14350 4900 50  0001 C CNN
	1    14350 4900
	1    0    0    -1  
$EndComp
$Comp
L power:+3.3V #PWR038
U 1 1 59625C3B
P 14350 5050
F 0 "#PWR038" H 14350 4900 50  0001 C CNN
F 1 "+3.3V" H 14350 5190 50  0000 C CNN
F 2 "" H 14350 5050 50  0001 C CNN
F 3 "" H 14350 5050 50  0001 C CNN
	1    14350 5050
	-1   0    0    1   
$EndComp
$Comp
L rfm_12:RFM12_SMD M2
U 1 1 5904CCBB
P 13200 5150
F 0 "M2" H 13200 5150 45  0001 L BNN
F 1 "RFM12_SMD" H 13500 6050 45  0000 L BNN
F 2 "w_rf_modules:RFM12B_SMD" H 13200 5150 60  0001 C CNN
F 3 "" H 13200 5150 60  0001 C CNN
	1    13200 5150
	1    0    0    -1  
$EndComp
$Comp
L power:+3.3V #PWR039
U 1 1 5962676A
P 14100 3950
F 0 "#PWR039" H 14100 3800 50  0001 C CNN
F 1 "+3.3V" H 14100 4090 50  0000 C CNN
F 2 "" H 14100 3950 50  0001 C CNN
F 3 "" H 14100 3950 50  0001 C CNN
	1    14100 3950
	1    0    0    -1  
$EndComp
$Comp
L CMCentralSensorSystem-rescue:R-device R6
U 1 1 5962680E
P 12600 4150
F 0 "R6" V 12680 4150 50  0000 C CNN
F 1 "10k" V 12600 4150 50  0000 C CNN
F 2 "Resistors_THT:R_Axial_DIN0207_L6.3mm_D2.5mm_P7.62mm_Horizontal" V 12530 4150 50  0001 C CNN
F 3 "" H 12600 4150 50  0001 C CNN
	1    12600 4150
	0    1    1    0   
$EndComp
$Comp
L power:GND #PWR040
U 1 1 596286C6
P 13650 9300
F 0 "#PWR040" H 13650 9050 50  0001 C CNN
F 1 "GND" H 13650 9150 50  0000 C CNN
F 2 "" H 13650 9300 50  0001 C CNN
F 3 "" H 13650 9300 50  0001 C CNN
	1    13650 9300
	0    1    1    0   
$EndComp
$Comp
L power:GND #PWR041
U 1 1 596295DD
P 12150 9550
F 0 "#PWR041" H 12150 9300 50  0001 C CNN
F 1 "GND" H 12150 9400 50  0000 C CNN
F 2 "" H 12150 9550 50  0001 C CNN
F 3 "" H 12150 9550 50  0001 C CNN
	1    12150 9550
	0    1    1    0   
$EndComp
$Comp
L power:GND #PWR042
U 1 1 5962C382
P 9000 10750
F 0 "#PWR042" H 9000 10500 50  0001 C CNN
F 1 "GND" H 9000 10600 50  0000 C CNN
F 2 "" H 9000 10750 50  0001 C CNN
F 3 "" H 9000 10750 50  0001 C CNN
	1    9000 10750
	1    0    0    -1  
$EndComp
$Comp
L CMCentralSensorSystem-rescue:R-device R4
U 1 1 5962CC54
P 10200 9550
F 0 "R4" V 10280 9550 50  0000 C CNN
F 1 "330" V 10200 9550 50  0000 C CNN
F 2 "Resistors_THT:R_Axial_DIN0207_L6.3mm_D2.5mm_P7.62mm_Horizontal" V 10130 9550 50  0001 C CNN
F 3 "" H 10200 9550 50  0001 C CNN
	1    10200 9550
	0    1    1    0   
$EndComp
$Comp
L CMCentralSensorSystem-rescue:R-device R5
U 1 1 5962CD94
P 10200 9750
F 0 "R5" V 10280 9750 50  0000 C CNN
F 1 "330" V 10200 9750 50  0000 C CNN
F 2 "Resistors_THT:R_Axial_DIN0207_L6.3mm_D2.5mm_P7.62mm_Horizontal" V 10130 9750 50  0001 C CNN
F 3 "" H 10200 9750 50  0001 C CNN
	1    10200 9750
	0    1    1    0   
$EndComp
$Comp
L CMCentralSensorSystem-rescue:C-device C9
U 1 1 5962D560
P 7950 8450
F 0 "C9" H 7975 8550 50  0000 L CNN
F 1 "100n" H 7975 8350 50  0000 L CNN
F 2 "Capacitors_THT:C_Disc_D3.8mm_W2.6mm_P2.50mm" H 7988 8300 50  0001 C CNN
F 3 "" H 7950 8450 50  0001 C CNN
	1    7950 8450
	0    1    1    0   
$EndComp
$Comp
L power:GND #PWR043
U 1 1 5962D6BE
P 7750 8450
F 0 "#PWR043" H 7750 8200 50  0001 C CNN
F 1 "GND" H 7750 8300 50  0000 C CNN
F 2 "" H 7750 8450 50  0001 C CNN
F 3 "" H 7750 8450 50  0001 C CNN
	1    7750 8450
	0    1    1    0   
$EndComp
$Comp
L power:GND #PWR044
U 1 1 5962DFB2
P 7900 10150
F 0 "#PWR044" H 7900 9900 50  0001 C CNN
F 1 "GND" H 7900 10000 50  0000 C CNN
F 2 "" H 7900 10150 50  0001 C CNN
F 3 "" H 7900 10150 50  0001 C CNN
	1    7900 10150
	0    -1   -1   0   
$EndComp
$Comp
L power:GND #PWR045
U 1 1 59630492
P 1550 7950
F 0 "#PWR045" H 1550 7700 50  0001 C CNN
F 1 "GND" H 1550 7800 50  0000 C CNN
F 2 "" H 1550 7950 50  0001 C CNN
F 3 "" H 1550 7950 50  0001 C CNN
	1    1550 7950
	0    -1   -1   0   
$EndComp
$Comp
L CMCentralSensorSystem-rescue:CP-device C2
U 1 1 596305A8
P 1950 8100
F 0 "C2" H 1975 8200 50  0000 L CNN
F 1 "100µ" H 1975 8000 50  0000 L CNN
F 2 "Capacitors_THT:CP_Radial_D5.0mm_P2.50mm" H 1988 7950 50  0001 C CNN
F 3 "" H 1950 8100 50  0001 C CNN
	1    1950 8100
	0    -1   -1   0   
$EndComp
$Comp
L power:GND #PWR046
U 1 1 59630684
P 2100 8100
F 0 "#PWR046" H 2100 7850 50  0001 C CNN
F 1 "GND" H 2100 7950 50  0000 C CNN
F 2 "" H 2100 8100 50  0001 C CNN
F 3 "" H 2100 8100 50  0001 C CNN
	1    2100 8100
	0    -1   -1   0   
$EndComp
$Comp
L power:+3.3V #PWR047
U 1 1 59630960
P 1600 8350
F 0 "#PWR047" H 1600 8200 50  0001 C CNN
F 1 "+3.3V" H 1600 8490 50  0000 C CNN
F 2 "" H 1600 8350 50  0001 C CNN
F 3 "" H 1600 8350 50  0001 C CNN
	1    1600 8350
	0    1    1    0   
$EndComp
$Comp
L CMCentralSensorSystem-rescue:CP-device C1
U 1 1 59630A04
P 1400 8200
F 0 "C1" H 1425 8300 50  0000 L CNN
F 1 "100µ" H 1425 8100 50  0000 L CNN
F 2 "Capacitors_THT:CP_Radial_D5.0mm_P2.50mm" H 1438 8050 50  0001 C CNN
F 3 "" H 1400 8200 50  0001 C CNN
	1    1400 8200
	0    -1   -1   0   
$EndComp
$Comp
L power:GND #PWR048
U 1 1 59630B50
P 1600 8200
F 0 "#PWR048" H 1600 7950 50  0001 C CNN
F 1 "GND" H 1600 8050 50  0000 C CNN
F 2 "" H 1600 8200 50  0001 C CNN
F 3 "" H 1600 8200 50  0001 C CNN
	1    1600 8200
	0    -1   -1   0   
$EndComp
Connection ~ 1250 8200
$Comp
L CMCentralSensorSystem-rescue:LED-device D1
U 1 1 5963469A
P 10600 9550
F 0 "D1" H 10600 9650 50  0000 C CNN
F 1 "LED" H 10600 9450 50  0000 C CNN
F 2 "LEDs:LED_0805" H 10600 9550 50  0001 C CNN
F 3 "" H 10600 9550 50  0001 C CNN
	1    10600 9550
	1    0    0    -1  
$EndComp
$Comp
L CMCentralSensorSystem-rescue:LED-device D2
U 1 1 59634758
P 10600 9750
F 0 "D2" H 10600 9850 50  0000 C CNN
F 1 "LED" H 10600 9650 50  0000 C CNN
F 2 "LEDs:LED_0805" H 10600 9750 50  0001 C CNN
F 3 "" H 10600 9750 50  0001 C CNN
	1    10600 9750
	1    0    0    -1  
$EndComp
Wire Wire Line
	12750 9550 12850 9550
Connection ~ 6900 2200
Wire Wire Line
	2400 5050 2500 5050
Connection ~ 1800 8100
$Comp
L power:+3.3V #PWR049
U 1 1 5968011A
P 4100 10100
F 0 "#PWR049" H 4100 9950 50  0001 C CNN
F 1 "+3.3V" H 4100 10240 50  0000 C CNN
F 2 "" H 4100 10100 50  0001 C CNN
F 3 "" H 4100 10100 50  0001 C CNN
	1    4100 10100
	0    1    1    0   
$EndComp
$Comp
L CMCentralSensorSystem-rescue:Conn_01x14-conn EA_DOG_XL_DISPLAY1
U 1 1 59680AB1
P 3350 9400
F 0 "EA_DOG_XL_DISPLAY1" V 3550 9800 50  0000 C CNN
F 1 "CONN_01X14" V 3450 9400 50  0000 C CNN
F 2 "Pin_Headers:Pin_Header_Angled_1x14_Pitch2.54mm" H 3350 9400 50  0001 C CNN
F 3 "" H 3350 9400 50  0001 C CNN
	1    3350 9400
	-1   0    0    1   
$EndComp
$Comp
L power:+5V #PWR050
U 1 1 5968138E
P 3600 10000
F 0 "#PWR050" H 3600 9850 50  0001 C CNN
F 1 "+5V" H 3600 10140 50  0000 C CNN
F 2 "" H 3600 10000 50  0000 C CNN
F 3 "" H 3600 10000 50  0000 C CNN
	1    3600 10000
	0    1    1    0   
$EndComp
Wire Wire Line
	3550 10000 3600 10000
Wire Wire Line
	1500 3700 1700 3700
$Comp
L power:GND #PWR051
U 1 1 59685025
P 4250 9800
F 0 "#PWR051" H 4250 9550 50  0001 C CNN
F 1 "GND" H 4250 9650 50  0000 C CNN
F 2 "" H 4250 9800 50  0001 C CNN
F 3 "" H 4250 9800 50  0001 C CNN
	1    4250 9800
	0    -1   -1   0   
$EndComp
Wire Wire Line
	12750 4150 13200 4150
Connection ~ 13200 4150
Connection ~ 14100 3950
Wire Wire Line
	6600 2050 6600 2200
Connection ~ 6600 2200
Wire Wire Line
	14950 1400 14950 1450
Wire Wire Line
	14950 2150 14950 2200
Wire Wire Line
	12900 900  12900 950 
Wire Wire Line
	12900 1650 12900 1700
Wire Wire Line
	1950 2400 1950 2450
Wire Wire Line
	1950 1700 1950 1600
Wire Wire Line
	1950 1900 1950 1950
Wire Wire Line
	1950 1950 2050 1950
Wire Wire Line
	1950 1600 2050 1600
Wire Wire Line
	1950 1250 1950 1150
Wire Wire Line
	1950 1150 2000 1150
Wire Wire Line
	1950 1450 1950 1500
Wire Wire Line
	1950 1500 2050 1500
Wire Wire Line
	1950 750  1950 700 
Wire Wire Line
	1950 700  2000 700 
Wire Wire Line
	1950 950  1950 1000
Wire Wire Line
	1950 1000 2000 1000
Wire Wire Line
	1950 2850 1950 2900
Wire Wire Line
	1950 2900 2050 2900
Wire Wire Line
	1950 2650 1950 2550
Wire Wire Line
	1950 2550 2050 2550
Wire Wire Line
	1950 3100 1950 3000
Wire Wire Line
	1950 3000 2000 3000
Wire Wire Line
	1950 3300 1950 3350
Wire Wire Line
	1950 3350 2000 3350
Wire Wire Line
	1950 2200 1950 2100
Wire Wire Line
	1950 2100 2000 2100
Wire Wire Line
	1950 2450 2000 2450
$Comp
L power:GND #PWR052
U 1 1 59690741
P 2000 1000
F 0 "#PWR052" H 2000 750 50  0001 C CNN
F 1 "GND" H 2000 850 50  0000 C CNN
F 2 "" H 2000 1000 50  0001 C CNN
F 3 "" H 2000 1000 50  0001 C CNN
	1    2000 1000
	0    -1   -1   0   
$EndComp
$Comp
L power:GND #PWR053
U 1 1 59690940
P 2050 1500
F 0 "#PWR053" H 2050 1250 50  0001 C CNN
F 1 "GND" H 2050 1350 50  0000 C CNN
F 2 "" H 2050 1500 50  0001 C CNN
F 3 "" H 2050 1500 50  0001 C CNN
	1    2050 1500
	0    -1   -1   0   
$EndComp
$Comp
L power:GND #PWR054
U 1 1 59690F8B
P 2050 1950
F 0 "#PWR054" H 2050 1700 50  0001 C CNN
F 1 "GND" H 2050 1800 50  0000 C CNN
F 2 "" H 2050 1950 50  0001 C CNN
F 3 "" H 2050 1950 50  0001 C CNN
	1    2050 1950
	0    -1   -1   0   
$EndComp
$Comp
L power:GND #PWR055
U 1 1 5969102C
P 2000 2450
F 0 "#PWR055" H 2000 2200 50  0001 C CNN
F 1 "GND" H 2000 2300 50  0000 C CNN
F 2 "" H 2000 2450 50  0001 C CNN
F 3 "" H 2000 2450 50  0001 C CNN
	1    2000 2450
	0    -1   -1   0   
$EndComp
$Comp
L power:GND #PWR056
U 1 1 59691717
P 2050 2900
F 0 "#PWR056" H 2050 2650 50  0001 C CNN
F 1 "GND" H 2050 2750 50  0000 C CNN
F 2 "" H 2050 2900 50  0001 C CNN
F 3 "" H 2050 2900 50  0001 C CNN
	1    2050 2900
	0    -1   -1   0   
$EndComp
$Comp
L power:GND #PWR057
U 1 1 596917B8
P 2000 3350
F 0 "#PWR057" H 2000 3100 50  0001 C CNN
F 1 "GND" H 2000 3200 50  0000 C CNN
F 2 "" H 2000 3350 50  0001 C CNN
F 3 "" H 2000 3350 50  0001 C CNN
	1    2000 3350
	0    -1   -1   0   
$EndComp
$Comp
L power:+3.3V #PWR058
U 1 1 59691AB1
P 2000 700
F 0 "#PWR058" H 2000 550 50  0001 C CNN
F 1 "+3.3V" H 2000 840 50  0000 C CNN
F 2 "" H 2000 700 50  0001 C CNN
F 3 "" H 2000 700 50  0001 C CNN
	1    2000 700 
	0    1    1    0   
$EndComp
$Comp
L power:+3.3V #PWR059
U 1 1 59691D46
P 2000 1150
F 0 "#PWR059" H 2000 1000 50  0001 C CNN
F 1 "+3.3V" H 2000 1290 50  0000 C CNN
F 2 "" H 2000 1150 50  0001 C CNN
F 3 "" H 2000 1150 50  0001 C CNN
	1    2000 1150
	0    1    1    0   
$EndComp
$Comp
L power:+3.3V #PWR060
U 1 1 59691DE7
P 2050 1600
F 0 "#PWR060" H 2050 1450 50  0001 C CNN
F 1 "+3.3V" H 2050 1740 50  0000 C CNN
F 2 "" H 2050 1600 50  0001 C CNN
F 3 "" H 2050 1600 50  0001 C CNN
	1    2050 1600
	0    1    1    0   
$EndComp
$Comp
L power:+3.3V #PWR061
U 1 1 596927D1
P 2000 2100
F 0 "#PWR061" H 2000 1950 50  0001 C CNN
F 1 "+3.3V" H 2000 2240 50  0000 C CNN
F 2 "" H 2000 2100 50  0001 C CNN
F 3 "" H 2000 2100 50  0001 C CNN
	1    2000 2100
	0    1    1    0   
$EndComp
$Comp
L power:+3.3V #PWR062
U 1 1 59692872
P 2050 2550
F 0 "#PWR062" H 2050 2400 50  0001 C CNN
F 1 "+3.3V" H 2050 2690 50  0000 C CNN
F 2 "" H 2050 2550 50  0001 C CNN
F 3 "" H 2050 2550 50  0001 C CNN
	1    2050 2550
	0    1    1    0   
$EndComp
$Comp
L power:+3.3V #PWR063
U 1 1 59692913
P 2000 3000
F 0 "#PWR063" H 2000 2850 50  0001 C CNN
F 1 "+3.3V" H 2000 3140 50  0000 C CNN
F 2 "" H 2000 3000 50  0001 C CNN
F 3 "" H 2000 3000 50  0001 C CNN
	1    2000 3000
	0    1    1    0   
$EndComp
Wire Wire Line
	1550 8200 1600 8200
Text GLabel 8800 2800 2    60   Input ~ 0
1WIRE_3.3V
$Comp
L CMCentralSensorSystem-rescue:CP-device C23
U 1 1 596208DC
P 3550 10150
F 0 "C23" H 3575 10250 50  0000 L CNN
F 1 "100µ" H 3575 10050 50  0000 L CNN
F 2 "Capacitors_THT:CP_Radial_D5.0mm_P2.50mm" H 3588 10000 50  0001 C CNN
F 3 "" H 3550 10150 50  0001 C CNN
	1    3550 10150
	1    0    0    -1  
$EndComp
$Comp
L power:GND #PWR064
U 1 1 5962099B
P 3550 10300
F 0 "#PWR064" H 3550 10050 50  0001 C CNN
F 1 "GND" H 3550 10150 50  0000 C CNN
F 2 "" H 3550 10300 50  0001 C CNN
F 3 "" H 3550 10300 50  0001 C CNN
	1    3550 10300
	0    1    1    0   
$EndComp
Text GLabel 3550 8800 2    60   Input ~ 0
DOGXL_PWM_LIGHT
Text GLabel 3550 8900 2    60   Input ~ 0
DOGXL_BOTTOM
Text GLabel 3550 9000 2    60   Input ~ 0
DOGXL_LEFT
Text GLabel 3550 9100 2    60   Input ~ 0
DOGXL_TOP
Text GLabel 3550 9200 2    60   Input ~ 0
DOGXL_RIGHT
Text GLabel 5850 2050 1    60   Input ~ 0
RESET
Text GLabel 9500 4300 2    60   Input ~ 0
POWERHOLD
Text GLabel 9500 4150 2    60   Input ~ 0
POWERSWITCH
Wire Wire Line
	9150 8150 9150 8000
Connection ~ 8950 8150
Connection ~ 9150 8150
Wire Wire Line
	5100 3300 5100 3500
Wire Wire Line
	5550 3100 5800 3100
Wire Wire Line
	5550 3500 5800 3500
Wire Wire Line
	3950 10100 4100 10100
Wire Wire Line
	3950 9800 4250 9800
Wire Wire Line
	12900 1250 13250 1250
Wire Wire Line
	12900 1350 13250 1350
Wire Wire Line
	14950 1750 15050 1750
Wire Wire Line
	14950 1850 15050 1850
Wire Wire Line
	13200 5750 13300 5750
Wire Wire Line
	9050 10650 9150 10650
Wire Wire Line
	9150 10650 9250 10650
Wire Wire Line
	9000 10650 9050 10650
Wire Wire Line
	8850 10650 9000 10650
Wire Wire Line
	14350 4750 14450 4750
Wire Wire Line
	14350 4550 14500 4550
Wire Wire Line
	13300 5750 13600 5750
Wire Wire Line
	5800 2550 5800 2700
Wire Wire Line
	1250 8200 1250 8350
Wire Wire Line
	6900 2200 6900 2400
Wire Wire Line
	1800 8100 1800 8350
Wire Wire Line
	13200 4150 14100 4150
Wire Wire Line
	6600 2200 6600 2400
Wire Wire Line
	8950 8150 9150 8150
$Comp
L CMCentralSensorSystem-rescue:Conn_02x03_Odd_Even-conn J2
U 1 1 5BE41133
P 12450 9450
F 0 "J2" H 12500 9767 50  0000 C CNN
F 1 "Conn_02x03_Odd_Even" H 12500 9676 50  0000 C CNN
F 2 "Connector_PinHeader_2.54mm:PinHeader_2x03_P2.54mm_Vertical" H 12450 9450 50  0001 C CNN
F 3 "~" H 12450 9450 50  0001 C CNN
	1    12450 9450
	1    0    0    -1  
$EndComp
Wire Wire Line
	5550 2050 5650 2050
$Comp
L CMCentralSensorSystem-rescue:USB_A-conn J1
U 1 1 5BE66C21
P 7400 10150
F 0 "J1" V 7503 10479 50  0000 L CNN
F 1 "USB_A" V 7412 10479 50  0000 L CNN
F 2 "Connectors:USB_Mini-B" H 7550 10100 50  0001 C CNN
F 3 "" H 7550 10100 50  0001 C CNN
	1    7400 10150
	0    -1   -1   0   
$EndComp
Wire Wire Line
	5850 2050 5850 2450
Wire Wire Line
	5850 2450 5800 2450
Connection ~ 5800 2450
Wire Wire Line
	15100 6550 15300 6550
Wire Wire Line
	15100 7050 15300 7050
Wire Wire Line
	12650 7600 12600 7600
Wire Wire Line
	12600 7600 12600 7550
Wire Wire Line
	12600 7550 12400 7550
Wire Wire Line
	12650 7800 12650 7850
Wire Wire Line
	12650 7850 12400 7850
Wire Wire Line
	13250 8000 13250 8050
Wire Wire Line
	13250 6800 13250 6550
Text GLabel 13900 7700 2    60   Input ~ 0
Battery_1307
$Comp
L maxim:DS1307+ U5
U 1 1 5BEA1A62
P 13250 7400
F 0 "U5" H 13250 8181 50  0000 C CNN
F 1 "DS1307+" H 13250 8090 50  0000 C CNN
F 2 "dp_devices:dp_devices-DIP8" H 13250 7400 50  0001 C CNN
F 3 "" H 13250 7400 50  0001 C CNN
	1    13250 7400
	1    0    0    -1  
$EndComp
Wire Wire Line
	13900 7700 13850 7700
Connection ~ 3550 10000
$Comp
L CMCentralSensorSystem-rescue:C-device C11
U 1 1 5BF25985
P 13700 8050
F 0 "C11" H 13725 8150 50  0000 L CNN
F 1 "100n" H 13725 7950 50  0000 L CNN
F 2 "Capacitors_THT:C_Disc_D3.8mm_W2.6mm_P2.50mm" H 13738 7900 50  0001 C CNN
F 3 "" H 13700 8050 50  0001 C CNN
	1    13700 8050
	0    1    1    0   
$EndComp
$Comp
L power:+5V #PWR09
U 1 1 5BF26B50
P 14000 8050
F 0 "#PWR09" H 14000 7900 50  0001 C CNN
F 1 "+5V" H 14000 8190 50  0000 C CNN
F 2 "" H 14000 8050 50  0000 C CNN
F 3 "" H 14000 8050 50  0000 C CNN
	1    14000 8050
	0    1    1    0   
$EndComp
Wire Wire Line
	13550 8050 13250 8050
Connection ~ 13250 8050
Wire Wire Line
	14000 8050 13850 8050
Wire Wire Line
	6600 2400 6700 2400
$Comp
L CMCentralSensorSystem-rescue:ATMEGA1284P-AU-atmel U4
U 1 1 5BF4E9C7
P 6800 4400
F 0 "U4" H 6800 6581 50  0000 C CNN
F 1 "ATMEGA1284P-AU" H 6800 6490 50  0000 C CNN
F 2 "adafruit:adafruit-TQFP44" H 6800 4400 50  0001 C CIN
F 3 "http://www.atmel.com/Images/Atmel-8272-8-bit-AVR-microcontroller-ATmega164A_PA-324A_PA-644A_PA-1284_P_datasheet.pdf" H 6800 4400 50  0001 C CNN
	1    6800 4400
	1    0    0    -1  
$EndComp
Connection ~ 6600 2400
Wire Wire Line
	6500 6400 6600 6400
Connection ~ 6600 6400
Wire Wire Line
	6600 6400 6700 6400
Wire Wire Line
	6700 6400 6800 6400
Connection ~ 6700 6400
$Comp
L CMCentralSensorSystem-rescue:SW_Push-switches SW1
U 1 1 5BFEF20E
P 5550 2250
F 0 "SW1" V 5596 2202 50  0000 R CNN
F 1 "SW_Push" V 5505 2202 50  0000 R CNN
F 2 "Buttons_Switches_THT:SW_PUSH_6mm_h13mm" H 5550 2450 50  0001 C CNN
F 3 "" H 5550 2450 50  0001 C CNN
	1    5550 2250
	0    -1   -1   0   
$EndComp
Wire Wire Line
	5550 2450 5800 2450
Wire Wire Line
	7350 8650 7350 9400
Wire Wire Line
	7350 9400 7500 9400
Wire Wire Line
	7500 9400 7500 9850
Wire Wire Line
	7400 8950 7400 9850
Wire Wire Line
	7200 8150 7200 9850
Wire Wire Line
	7800 10150 7900 10150
Wire Wire Line
	12650 7100 12550 7100
Wire Wire Line
	12550 7300 12650 7300
$Comp
L battery:CR2032H G1
U 1 1 5BDF4A82
P 14350 9300
F 0 "G1" H 14350 9554 45  0000 C CNN
F 1 "CR2032H" H 14350 9470 45  0000 C CNN
F 2 "battery:battery-CR2032H" H 14350 9300 60  0001 C CNN
F 3 "" H 14350 9300 60  0001 C CNN
	1    14350 9300
	1    0    0    -1  
$EndComp
Wire Wire Line
	13650 9300 14150 9300
Wire Wire Line
	14550 9300 15150 9300
$Comp
L CMCentralSensorSystem-rescue:CP-device C13
U 1 1 5BE1B00D
P 2000 3950
F 0 "C13" H 2025 4050 50  0000 L CNN
F 1 "100µ" H 2025 3850 50  0000 L CNN
F 2 "Capacitors_THT:CP_Radial_D5.0mm_P2.50mm" H 2038 3800 50  0001 C CNN
F 3 "" H 2000 3950 50  0001 C CNN
	1    2000 3950
	0    1    1    0   
$EndComp
Wire Wire Line
	2500 3700 2500 3950
Wire Wire Line
	2500 3950 2150 3950
Connection ~ 2500 3700
Wire Wire Line
	1500 3700 1500 3950
Wire Wire Line
	1500 3950 1850 3950
Connection ~ 1500 3700
$Comp
L CMCentralSensorSystem-rescue:CP-device C12
U 1 1 5BE41E9D
P 800 1100
F 0 "C12" H 825 1200 50  0000 L CNN
F 1 "100µ" H 825 1000 50  0000 L CNN
F 2 "Capacitors_THT:CP_Radial_D5.0mm_P2.50mm" H 838 950 50  0001 C CNN
F 3 "" H 800 1100 50  0001 C CNN
	1    800  1100
	-1   0    0    1   
$EndComp
$Comp
L power:+3.3V #PWR065
U 1 1 5BE449DC
P 800 1250
F 0 "#PWR065" H 800 1100 50  0001 C CNN
F 1 "+3.3V" H 800 1390 50  0000 C CNN
F 2 "" H 800 1250 50  0001 C CNN
F 3 "" H 800 1250 50  0001 C CNN
	1    800  1250
	-1   0    0    1   
$EndComp
$Comp
L power:GND #PWR010
U 1 1 5BE458EE
P 800 950
F 0 "#PWR010" H 800 700 50  0001 C CNN
F 1 "GND" H 800 800 50  0000 C CNN
F 2 "" H 800 950 50  0001 C CNN
F 3 "" H 800 950 50  0001 C CNN
	1    800  950 
	-1   0    0    1   
$EndComp
$Comp
L CMCentralSensorSystem-rescue:Fuse-device F1
U 1 1 5BE47C0A
P 15250 6450
F 0 "F1" V 15053 6450 50  0000 C CNN
F 1 "Fuse" V 15144 6450 50  0000 C CNN
F 2 "Fuse:Fuse_Littlefuse_395Series" V 15180 6450 50  0001 C CNN
F 3 "~" H 15250 6450 50  0001 C CNN
	1    15250 6450
	0    1    1    0   
$EndComp
$Comp
L CMCentralSensorSystem-rescue:Fuse-device F2
U 1 1 5BE5BDDD
P 15250 6950
F 0 "F2" V 15053 6950 50  0000 C CNN
F 1 "Fuse" V 15144 6950 50  0000 C CNN
F 2 "Fuse:Fuse_Littlefuse_395Series" V 15180 6950 50  0001 C CNN
F 3 "~" H 15250 6950 50  0001 C CNN
	1    15250 6950
	0    1    1    0   
$EndComp
$Comp
L CMCentralSensorSystem-rescue:C-device C14
U 1 1 5BE5D6D8
P 14000 750
F 0 "C14" H 14025 850 50  0000 L CNN
F 1 "100n" H 14025 650 50  0000 L CNN
F 2 "Capacitors_THT:C_Disc_D3.8mm_W2.6mm_P2.50mm" H 14038 600 50  0001 C CNN
F 3 "" H 14000 750 50  0001 C CNN
	1    14000 750 
	0    -1   -1   0   
$EndComp
Wire Wire Line
	14150 750  15550 750 
Wire Wire Line
	15550 750  15550 2350
Wire Wire Line
	15550 2350 13250 2350
Wire Wire Line
	13250 2350 13250 1850
Connection ~ 13250 1850
Wire Wire Line
	13250 1050 13250 750 
Wire Wire Line
	13250 750  13850 750 
Connection ~ 13250 1050
$Comp
L CMCentralSensorSystem-rescue:CP-device C15
U 1 1 5BEE2FC4
P 14600 5600
F 0 "C15" H 14625 5700 50  0000 L CNN
F 1 "10µ" H 14625 5500 50  0000 L CNN
F 2 "Capacitors_THT:CP_Radial_D5.0mm_P2.50mm" H 14638 5450 50  0001 C CNN
F 3 "" H 14600 5600 50  0001 C CNN
	1    14600 5600
	-1   0    0    1   
$EndComp
Wire Wire Line
	14600 5750 15400 5750
$Comp
L power:GND #PWR066
U 1 1 5BE2DDC6
P 14600 5450
F 0 "#PWR066" H 14600 5200 50  0001 C CNN
F 1 "GND" H 14600 5300 50  0000 C CNN
F 2 "" H 14600 5450 50  0001 C CNN
F 3 "" H 14600 5450 50  0001 C CNN
	1    14600 5450
	-1   0    0    1   
$EndComp
Wire Wire Line
	13900 5750 14600 5750
Connection ~ 14600 5750
$Comp
L CMCentralSensorSystem-rescue:Conn_01x01-conn J3
U 1 1 5BE9CEF3
P 14300 5350
F 0 "J3" H 14380 5392 50  0000 L CNN
F 1 "Conn_01x01" H 14380 5301 50  0000 L CNN
F 2 "Pin_Headers:Pin_Header_Straight_1x01_Pitch2.54mm" H 14300 5350 50  0001 C CNN
F 3 "~" H 14300 5350 50  0001 C CNN
	1    14300 5350
	1    0    0    -1  
$EndComp
Wire Wire Line
	6500 2400 6600 2400
$EndSCHEMATC
